wavelength,spectrum
310.0,2.344254945515685e-07
310.5,2.3543068603385324e-07
311.0,2.3727788230986137e-07
311.5,2.396865869743521e-07
312.0,2.4233813970191853e-07
312.5,2.4496621844255586e-07
313.0,2.474328669791985e-07
313.5,2.49768502184766e-07
314.0,2.5216410192461635e-07
314.5,2.549185620390688e-07
315.0,2.583605065179159e-07
315.5,2.6276970807039655e-07
316.0,2.6832236624502727e-07
316.5,2.750749001929576e-07
317.0,2.829850515721674e-07
317.5,2.9195928129914886e-07
318.0,3.0190484253606456e-07
318.5,3.1277178222111077e-07
319.0,3.245716624331774e-07
319.5,3.3736984996373915e-07
320.0,3.5125943008187196e-07
320.5,3.663274442426618e-07
321.0,3.82629661856848e-07
321.5,4.00185494468706e-07
322.0,4.189957426691223e-07
322.5,4.390756561184752e-07
323.0,4.6048666031270876e-07
323.5,4.833462621051655e-07
324.0,5.07803932468589e-07
324.5,5.339869076120694e-07
325.0,5.619331988150463e-07
325.5,5.915418411103379e-07
326.0,6.225660174600414e-07
326.5,6.546573393492031e-07
327.0,6.874473895158934e-07
327.5,7.206386298484297e-07
328.0,7.540707703686084e-07
328.5,7.877389636213654e-07
329.0,8.217615200622028e-07
329.5,8.563130186062225e-07
330.0,8.915505572489749e-07
330.5,9.275616382403478e-07
331.0,9.64346808573373e-07
331.5,1.0018366525642398e-06
332.0,1.039930644756237e-06
332.5,1.0785330544393253e-06
333.0,1.1175750099493797e-06
333.5,1.1570110814647422e-06
334.0,1.1967938373238655e-06
334.5,1.2368410937128005e-06
335.0,1.2769998373818164e-06
335.5,1.3170211932964344e-06
336.0,1.3565472806978283e-06
336.5,1.395110504680416e-06
337.0,1.432152395208761e-06
337.5,1.4670648025411703e-06
338.0,1.499260731635571e-06
338.5,1.5282721923485966e-06
339.0,1.5538578250999783e-06
339.5,1.576093107751571e-06
340.0,1.5954092388075265e-06
340.5,1.6125562789220513e-06
341.0,1.628487959122141e-06
341.5,1.644193090724403e-06
342.0,1.6605178173009188e-06
342.5,1.6780252517480822e-06
343.0,1.6969325682694577e-06
343.5,1.7171309252772882e-06
344.0,1.7382705956390704e-06
344.5,1.7598798990184949e-06
345.0,1.7814744061124097e-06
345.5,1.8026316452163246e-06
346.0,1.8230196973506879e-06
346.5,1.842385056951764e-06
347.0,1.86051940365703e-06
347.5,1.8772291189809583e-06
348.0,1.8923292657108646e-06
348.5,1.9056722715484544e-06
349.0,1.9172098825540304e-06
349.5,1.9270657204129835e-06
350.0,1.9355897759053884e-06
350.5,1.9433641745840624e-06
351.0,1.9511425866664993e-06
351.5,1.9597378468325147e-06
352.0,1.969884485692937e-06
352.5,1.9821300608790904e-06
353.0,1.9967848275223485e-06
353.5,2.0139538184924803e-06
354.0,2.033630438098338e-06
354.5,2.055823420311948e-06
355.0,2.0806835603490575e-06
355.5,2.108593903309046e-06
356.0,2.140224993185897e-06
356.5,2.176543585811833e-06
357.0,2.2187856678604246e-06
357.5,2.2683855194467144e-06
358.0,2.3268481775540223e-06
358.5,2.3955532556685304e-06
359.0,2.475492358437569e-06
359.5,2.5669664103485863e-06
360.0,2.669314860768591e-06
360.5,2.780748576151635e-06
361.0,2.8983662006993073e-06
361.5,3.0183895439026212e-06
362.0,3.136591525523817e-06
362.5,3.248825885829505e-06
363.0,3.351535813165158e-06
363.5,3.44210699343896e-06
364.0,3.518991979167951e-06
364.5,3.581594876501006e-06
365.0,3.629972837376482e-06
365.5,3.6644739399408823e-06
366.0,3.685412138146391e-06
366.5,3.6928710316243106e-06
367.0,3.6866637692978367e-06
367.5,3.666439461338704e-06
368.0,3.631892125158917e-06
368.5,3.583019314398608e-06
369.0,3.5203707284623973e-06
369.5,3.4452499391504454e-06
370.0,3.3598146063001345e-06
370.5,3.267049511128766e-06
371.0,3.1705864127191797e-06
371.5,3.0743813556942756e-06
372.0,2.982303382533779e-06
372.5,2.8977081891437595e-06
373.0,2.823100833617059e-06
373.5,2.7599519562555783e-06
374.0,2.70870549957624e-06
374.5,2.668945901232924e-06
375.0,2.6396623330854952e-06
375.5,2.6195314025704316e-06
376.0,2.6071492031997967e-06
376.5,2.6011824716551806e-06
377.0,2.600440568188766e-06
377.5,2.603883592303906e-06
378.0,2.6105994687631367e-06
378.5,2.6197742239255013e-06
379.0,2.6306752696355848e-06
379.5,2.6426656611312825e-06
380.0,2.6552589579213125e-06
380.5,2.668200370410663e-06
381.0,2.6815597498612198e-06
381.5,2.6957990780807167e-06
382.0,2.7117771435715713e-06
382.5,2.730683500663232e-06
383.0,2.7538999114049137e-06
383.5,2.7828215869044914e-06
384.0,2.8186693800231787e-06
384.5,2.8623174496276914e-06
385.0,2.9141588103827923e-06
385.5,2.974013614710577e-06
386.0,3.041089093959755e-06
386.5,3.1140078089761925e-06
387.0,3.1909086299947446e-06
387.5,3.2696208802611385e-06
388.0,3.3478815579579922e-06
388.5,3.4235591577377506e-06
389.0,3.494837393097392e-06
389.5,3.56033602622596e-06
390.0,3.619166927093414e-06
390.5,3.670952599018918e-06
391.0,3.715829188292875e-06
391.5,3.7544604293751976e-06
392.0,3.7880455725414515e-06
392.5,3.818309145933335e-06
393.0,3.847435397927727e-06
393.5,3.8779504767719285e-06
394.0,3.912569608596503e-06
394.5,3.954045638818989e-06
395.0,4.005065893628799e-06
395.5,4.068204536989198e-06
396.0,4.145920380165378e-06
396.5,4.240535008461733e-06
397.0,4.354143995036901e-06
397.5,4.488413665971581e-06
398.0,4.64427321296678e-06
398.5,4.821555832135188e-06
399.0,5.018680801635499e-06
399.5,5.232464764227397e-06
400.0,5.458144435979478e-06
400.5,5.689634095303087e-06
401.0,5.920013655962899e-06
401.5,6.142172536002549e-06
402.0,6.34952421950197e-06
402.5,6.5366532357803455e-06
403.0,6.699770006197397e-06
403.5,6.836887077046831e-06
404.0,6.947667789337844e-06
404.5,7.0330093839818426e-06
405.0,7.094469575980623e-06
405.5,7.13370584941856e-06
406.0,7.152080344569786e-06
406.5,7.150530761667505e-06
407.0,7.129711835950261e-06
407.5,7.090345325967261e-06
408.0,7.033629497308713e-06
408.5,6.96157779901799e-06
409.0,6.877161044288163e-06
409.5,6.784209165250013e-06
410.0,6.687086933192991e-06
410.5,6.590234774649355e-06
411.0,6.497692392669055e-06
411.5,6.412714695141563e-06
412.0,6.3375705995425075e-06
412.5,6.2735196584684085e-06
413.0,6.220951603795665e-06
413.5,6.179605455720451e-06
414.0,6.148803475291788e-06
414.5,6.127647504889812e-06
415.0,6.115144175435635e-06
415.5,6.110266569489473e-06
416.0,6.111973770525844e-06
416.5,6.119203204283362e-06
417.0,6.130878485224437e-06
417.5,6.145941977297566e-06
418.0,6.163428801148201e-06
418.5,6.182563476711583e-06
419.0,6.202854455338983e-06
419.5,6.224142317489071e-06
420.0,6.246561283345239e-06
420.5,6.2704178187971175e-06
421.0,6.296009047534361e-06
421.5,6.323447572362512e-06
422.0,6.352552494706834e-06
422.5,6.382863520682396e-06
423.0,6.413762133363621e-06
423.5,6.444687088730852e-06
424.0,6.475339735699604e-06
424.5,6.5058597466800244e-06
425.0,6.536911622913281e-06
425.5,6.569711853030343e-06
426.0,6.606059900514992e-06
426.5,6.6483956662516364e-06
427.0,6.699940357140665e-06
427.5,6.764849677455515e-06
428.0,6.848304994289311e-06
428.5,6.956384413192954e-06
429.0,7.09560740871379e-06
429.5,7.272094480526856e-06
430.0,7.490407670828307e-06
430.5,7.75227728765159e-06
431.0,8.055522329890195e-06
431.5,8.39348206568974e-06
432.0,8.75521120949264e-06
432.5,9.126492686006349e-06
433.0,9.491540948278573e-06
433.5,9.835009705006814e-06
434.0,1.0143876339542195e-05
434.5,1.0408772229051346e-05
435.0,1.0624477064622993e-05
435.5,1.0789574202316726e-05
436.0,1.0905424234515484e-05
436.5,1.0974830087742878e-05
437.0,1.1000767234888756e-05
437.5,1.0985520990298966e-05
438.0,1.0930422914963685e-05
438.5,1.0836204181308098e-05
439.0,1.0703812920819317e-05
439.5,1.0535441006276515e-05
440.0,1.0335415650625336e-05
440.5,1.0110687796955596e-05
441.0,9.870689019590066e-06
441.5,9.626560517239728e-06
442.0,9.389883276238411e-06
442.5,9.171204800947205e-06
443.0,8.97873528240555e-06
443.5,8.817477780719692e-06
444.0,8.688993904424092e-06
444.5,8.591757679183701e-06
445.0,8.521959581382887e-06
445.5,8.474503247247525e-06
446.0,8.443962028835765e-06
446.5,8.425322427712355e-06
447.0,8.414438744791489e-06
447.5,8.408201672210122e-06
448.0,8.404495832340404e-06
448.5,8.4020128879047e-06
449.0,8.400014822057214e-06
449.5,8.398083492743423e-06
450.0,8.395923391068908e-06
450.5,8.393214082957771e-06
451.0,8.38952679649874e-06
451.5,8.384306959328913e-06
452.0,8.376884059488891e-06
452.5,8.366525558039804e-06
453.0,8.352498097980781e-06
453.5,8.334152575354872e-06
454.0,8.31101048202236e-06
454.5,8.282854632923532e-06
455.0,8.24980662081135e-06
455.5,8.212375414413198e-06
456.0,8.171452270915572e-06
456.5,8.128252623880139e-06
457.0,8.084207425917762e-06
457.5,8.040828528356732e-06
458.0,7.999592881980719e-06
458.5,7.961867237490693e-06
459.0,7.928895505485798e-06
459.5,7.901833410730137e-06
460.0,7.881790304421053e-06
460.5,7.869842312607145e-06
461.0,7.866969143202598e-06
461.5,7.873919827172084e-06
462.0,7.891028870588992e-06
462.5,7.918041533089753e-06
463.0,7.954029222522343e-06
463.5,7.997447562408458e-06
464.0,8.046379399055735e-06
464.5,8.098915420806335e-06
465.0,8.153594532005363e-06
465.5,8.209758277848427e-06
466.0,8.267694096263184e-06
466.5,8.32847961350579e-06
467.0,8.393534482283213e-06
467.5,8.4639864638873e-06
468.0,8.54002301737613e-06
468.5,8.620422575306668e-06
469.0,8.70241319364451e-06
469.5,8.781903236843417e-06
470.0,8.854031161845894e-06
470.5,8.913889858361504e-06
471.0,8.957243440463255e-06
471.5,8.98107576125136e-06
472.0,8.983859252194544e-06
472.5,8.965530631983906e-06
473.0,8.927209237386031e-06
473.5,8.87077573062181e-06
474.0,8.798424868411938e-06
474.5,8.712300478459821e-06
475.0,8.61428817451763e-06
475.5,8.505978141908225e-06
476.0,8.388778598089983e-06
476.5,8.264117458778836e-06
477.0,8.133645722717802e-06
477.5,7.999384608012287e-06
478.0,7.863745211369524e-06
478.5,7.729421159728223e-06
479.0,7.599172169874458e-06
479.5,7.475552489965444e-06
480.0,7.360663576736323e-06
480.5,7.255981771266861e-06
481.0,7.16231559364326e-06
481.5,7.079878072949852e-06
482.0,7.0084520056938015e-06
482.5,6.947585024686021e-06
483.0,6.896753834538081e-06
483.5,6.855456188839036e-06
484.0,6.823213332007678e-06
484.5,6.799505808161052e-06
485.0,6.783679842143544e-06
485.5,6.774887733024294e-06
486.0,6.772095814353063e-06
486.5,6.774190626956999e-06
487.0,6.780164256323201e-06
487.5,6.789344781060028e-06
488.0,6.8016235535847945e-06
488.5,6.817621295595384e-06
489.0,6.838771364987581e-06
489.5,6.867286430130158e-06
490.0,6.906016298340694e-06
490.5,6.958192832933653e-06
491.0,7.027072402522571e-06
491.5,7.115488576391567e-06
492.0,7.225344533226167e-06
492.5,7.357101669657609e-06
493.0,7.509356032493044e-06
493.5,7.678604033544726e-06
494.0,7.859298381780747e-06
494.5,8.044244091880073e-06
495.0,8.225302889635743e-06
495.5,8.39430555727722e-06
496.0,8.543985605937293e-06
496.5,8.668752076422212e-06
497.0,8.765147431006282e-06
497.5,8.831927879264358e-06
498.0,8.869805787438573e-06
498.5,8.880981826101697e-06
499.0,8.868624035118378e-06
499.5,8.836434017095446e-06
500.0,8.788367702228577e-06
500.5,8.728504764199538e-06
501.0,8.660996147394163e-06
501.5,8.590005227540606e-06
502.0,8.519573496089943e-06
502.5,8.453408729337797e-06
503.0,8.394619239642405e-06
503.5,8.345473744089687e-06
504.0,8.307241316998927e-06
504.5,8.280146997746648e-06
505.0,8.263456386847441e-06
505.5,8.255635368997173e-06
506.0,8.254585163602463e-06
506.5,8.25787094421315e-06
507.0,8.2629386254784e-06
507.5,8.267280100714365e-06
508.0,8.268519306860724e-06
508.5,8.264423237580885e-06
509.0,8.252829074788994e-06
509.5,8.231529018657264e-06
510.0,8.198168342941995e-06
510.5,8.150229482780543e-06
511.0,8.085174244999903e-06
511.5,8.0007742708108e-06
512.0,7.895594436642962e-06
512.5,7.769534384267798e-06
513.0,7.6242647527797515e-06
513.5,7.463404375542343e-06
514.0,7.2923261538596935e-06
514.5,7.117585893477999e-06
515.0,6.9460737404748385e-06
515.5,6.7840841723942106e-06
516.0,6.636517100070576e-06
516.5,6.506382780514322e-06
517.0,6.394689909007453e-06
517.5,6.30068463590132e-06
518.0,6.222333510506765e-06
518.5,6.156901780461116e-06
519.0,6.101493856640964e-06
519.5,6.053464464997099e-06
520.0,6.010662168809274e-06
520.5,5.9715126859283105e-06
521.0,5.934981311415195e-06
521.5,5.9004605254246815e-06
522.0,5.867639201392996e-06
522.5,5.836379512355744e-06
523.0,5.806639237473581e-06
523.5,5.778435740974212e-06
524.0,5.751843361543799e-06
524.5,5.727020572143364e-06
525.0,5.70423311874405e-06
525.5,5.683881164765142e-06
526.0,5.666515895296243e-06
526.5,5.652855168294879e-06
527.0,5.643793865433278e-06
527.5,5.640405352074681e-06
528.0,5.6439166445263565e-06
528.5,5.655640743922827e-06
529.0,5.676855988389026e-06
529.5,5.7086381447889885e-06
530.0,5.751672252937856e-06
530.5,5.8060917837248465e-06
531.0,5.871389627796459e-06
531.5,5.94644036893516e-06
532.0,6.029638183118252e-06
532.5,6.119131359586302e-06
533.0,6.213091378355949e-06
533.5,6.309983048721494e-06
534.0,6.408754155987537e-06
534.5,6.50897042997283e-06
535.0,6.610863398733498e-06
535.5,6.715352714726271e-06
536.0,6.824083725196217e-06
536.5,6.939488355605545e-06
537.0,7.064924322669073e-06
537.5,7.204812557823021e-06
538.0,7.36474155644632e-06
538.5,7.551395511254757e-06
539.0,7.772189119574438e-06
539.5,8.034506942860582e-06
540.0,8.344536303690507e-06
540.5,8.705827052122734e-06
541.0,9.117857174826213e-06
541.5,9.574973803472797e-06
542.0,1.0066102184443309e-05
542.5,1.0575408115149056e-05
543.0,1.1083943395609108e-05
543.5,1.1571920603585836e-05
544.0,1.2021136658483885e-05
544.5,1.2416963145136299e-05
545.0,1.2749434336115565e-05
545.5,1.3013261234690673e-05
546.0,1.3206854019547184e-05
546.5,1.3330764365444534e-05
547.0,1.3386033345087778e-05
547.5,1.337298476259188e-05
548.0,1.3290794508795273e-05
548.5,1.3137962111637912e-05
549.0,1.2913526831023085e-05
549.5,1.2618664869470523e-05
550.0,1.2258164122024619e-05
550.5,1.1841344616388945e-05
551.0,1.138205863899413e-05
551.5,1.0897747307158535e-05
552.0,1.0407694933037909e-05
552.5,9.930878049460166e-06
553.0,9.483889228175645e-06
553.5,9.079322109843402e-06
554.0,8.724934010175932e-06
554.5,8.423627135028152e-06
555.0,8.174148457841837e-06
555.5,7.972277910470438e-06
556.0,7.812172614469013e-06
556.5,7.687663243940623e-06
557.0,7.593259743405901e-06
557.5,7.524879796697933e-06
558.0,7.480305297567543e-06
558.5,7.4594748777874574e-06
559.0,7.464766361132427e-06
559.5,7.50121399161862e-06
560.0,7.576736110442336e-06
560.5,7.70211100026983e-06
561.0,7.890614289159305e-06
561.5,8.157080731530952e-06
562.0,8.516304504377445e-06
562.5,8.980858367894255e-06
563.0,9.558541930197123e-06
563.5,1.0249910337969921e-05
564.0,1.1046401637872372e-05
564.5,1.192958908063604e-05
565.0,1.287196202905934e-05
565.5,1.3839245435026744e-05
566.0,1.4794001631302431e-05
566.5,1.5699840741857264e-05
567.0,1.6525383888598903e-05
567.5,1.7247209373384156e-05
568.0,1.7851141959125142e-05
568.5,1.8331814428450513e-05
569.0,1.8690788919519294e-05
569.5,1.8933941319956437e-05
570.0,1.906895770985465e-05
570.5,1.910368765479305e-05
571.0,1.9045735704516976e-05
571.5,1.8903261021913338e-05
572.0,1.86864246917402e-05
572.5,1.8408825303281757e-05
573.0,1.8088128190017985e-05
573.5,1.774552919169034e-05
574.0,1.740400642612965e-05
574.5,1.7085863548005208e-05
575.0,1.6810250435666654e-05
575.5,1.6591356070725907e-05
576.0,1.6437744489534835e-05
576.5,1.635277069630066e-05
577.0,1.633580576636927e-05
577.5,1.6383624771940267e-05
578.0,1.64915283244531e-05
578.5,1.6653903972050028e-05
579.0,1.6864270362099926e-05
579.5,1.711509884087279e-05
580.0,1.739773551364152e-05
580.5,1.7702658411723062e-05
581.0,1.8020143913753578e-05
581.5,1.8341160625561923e-05
582.0,1.8658332613915827e-05
582.5,1.89666790378917e-05
583.0,1.926402284773011e-05
583.5,1.9550978699092435e-05
584.0,1.9830513330795045e-05
584.5,2.0107188514497695e-05
585.0,2.0386135494384085e-05
585.5,2.0671965102097196e-05
586.0,2.0967782845205386e-05
586.5,2.1274493398124464e-05
587.0,2.1590530537953557e-05
587.5,2.1912051325485802e-05
588.0,2.2233522857148662e-05
588.5,2.2548562055514372e-05
589.0,2.2850813747395944e-05
589.5,2.313470384566003e-05
590.0,2.339597219444754e-05
590.5,2.3631891455433964e-05
591.0,2.3841220380467657e-05
591.5,2.402389247665408e-05
592.0,2.4180518280846485e-05
592.5,2.4311765533820327e-05
593.0,2.4417717011620707e-05
593.5,2.449730330492802e-05
594.0,2.4547923835778914e-05
594.5,2.4565351767211665e-05
595.0,2.454397322674214e-05
595.5,2.447737701655072e-05
596.0,2.4359207614992894e-05
596.5,2.418416973391603e-05
597.0,2.3948976015565452e-05
597.5,2.3653064855056244e-05
598.0,2.329892644117964e-05
598.5,2.2891971957097504e-05
599.0,2.2439976284234617e-05
599.5,2.195224195154747e-05
600.0,2.143868201134765e-05
600.5,2.0909028059893987e-05
601.0,2.0372312865607896e-05
601.5,1.98366779275703e-05
602.0,1.9309450623830935e-05
602.5,1.8797366891917075e-05
603.0,1.830678436531399e-05
603.5,1.78437660640762e-05
604.0,1.7413987880569466e-05
604.5,1.7022489411442312e-05
605.0,1.6673358191500265e-05
605.5,1.6369429159137296e-05
606.0,1.6112098181909588e-05
606.5,1.5901252962393666e-05
607.0,1.5735349173197156e-05
607.5,1.5611565077743996e-05
608.0,1.5526036735086103e-05
608.5,1.547409911655611e-05
609.0,1.5450550303093763e-05
609.5,1.5449895215428863e-05
610.0,1.5466556953019288e-05
610.5,1.5495042796336007e-05
611.0,1.5530034521767574e-05
611.5,1.5566389868553666e-05
612.0,1.5599057996175334e-05
612.5,1.562295045188343e-05
613.0,1.5632828369148475e-05
613.5,1.562330580896835e-05
614.0,1.5589031015036028e-05
614.5,1.5525086654132693e-05
615.0,1.5427539330270053e-05
615.5,1.5294041040289978e-05
616.0,1.5124282051848514e-05
616.5,1.4920175737792494e-05
617.0,1.4685674021525578e-05
617.5,1.4426261435236571e-05
618.0,1.4148248722712892e-05
618.5,1.38580571234242e-05
619.0,1.3561651563893794e-05
619.5,1.326423758561444e-05
620.0,1.297022281552595e-05
620.5,1.268336592942054e-05
621.0,1.24069880308091e-05
621.5,1.2144113842026717e-05
622.0,1.1897472222555536e-05
622.5,1.1669345307905743e-05
623.0,1.1461343146093442e-05
623.5,1.1274213709345138e-05
624.0,1.1107774905068061e-05
624.5,1.0961007595412901e-05
625.0,1.0832304741631878e-05
625.5,1.0719781576408243e-05
626.0,1.0621603071986425e-05
626.5,1.0536245994475184e-05
627.0,1.0462671210928022e-05
627.5,1.0400397689623629e-05
628.0,1.0349476630143541e-05
628.5,1.0310368990143763e-05
629.0,1.0283745119902461e-05
629.5,1.0270240398236546e-05
