wavelength,spectrum
310.0,0.0061322546640717145
310.5,0.006168385271139651
311.0,0.006239607491186033
311.5,0.006344267019600566
312.0,0.006480779086751328
312.5,0.006648339782072025
313.0,0.006847370861274818
313.5,0.007079583915450572
314.0,0.007347614863822039
314.5,0.007654379174031314
315.0,0.008002374490518136
315.5,0.008393161248950272
316.0,0.008827327224681374
316.5,0.009304894872062092
317.0,0.009826100521020785
317.5,0.01039234349956804
318.0,0.011006774441840717
318.5,0.011674305819565071
319.0,0.012400817137248244
319.5,0.013191597629533399
320.0,0.014049561281573619
320.5,0.01497377814909317
321.0,0.01595904446057456
321.5,0.016996847196280772
322.0,0.01807753736250254
322.5,0.019193055846928524
323.0,0.02033906637105749
323.5,0.021515529188618644
324.0,0.02272530760399535
324.5,0.023971187485399618
325.0,0.025252523469190467
325.5,0.026562974231872948
326.0,0.027890405389820763
326.5,0.029219132242012794
327.0,0.030533627835654834
327.5,0.031822221466664184
328.0,0.03307932339377309
328.5,0.03430538361298073
329.0,0.03550478809193592
329.5,0.03668275419466946
330.0,0.03784248812756592
330.5,0.038983761177692006
331.0,0.04010323089573064
331.5,0.0411961365208186
332.0,0.04225860661610121
332.5,0.04328943709753827
333.0,0.04429093347022623
333.5,0.04526846275958951
334.0,0.04622892325762271
334.5,0.04717879370985065
335.0,0.04812194581718987
335.5,0.04905781627520899
336.0,0.04998015006669238
336.5,0.05087646055836033
337.0,0.05172865733390916
337.5,0.05251495474102429
338.0,0.053213174699931344
338.5,0.05380512612651692
339.0,0.054281130480045944
339.5,0.05464354754636483
340.0,0.05490807082951397
340.5,0.05510205387973877
341.0,0.05526004383605898
341.5,0.055417575904431485
342.0,0.055604929789955286
342.5,0.05584246282503496
343.0,0.056138780621086355
343.5,0.05649174625483486
344.0,0.05689158078590601
344.5,0.05732481299545423
345.0,0.05777765974088834
345.5,0.058238027545475114
346.0,0.05869588919137572
346.5,0.05914236624233951
347.0,0.05956822591672029
347.5,0.0599626397510306
348.0,0.06031289713342227
348.5,0.0606053838942358
349.0,0.06082782464038701
349.5,0.060972100914468835
350.0,0.06103681918438853
350.5,0.0610286345693885
351.0,0.06096172020996166
351.5,0.06085553953239043
352.0,0.06073150625895836
352.5,0.06060971112112284
353.0,0.060506586719347694
353.5,0.06043396916390525
354.0,0.06039941660904647
354.5,0.06040718058688739
355.0,0.06045921805917076
355.5,0.06055590098915593
356.0,0.06069637853104484
356.5,0.060878868689389215
357.0,0.061101131989856144
357.5,0.061361228867955246
358.0,0.061658344444222
358.5,0.0619934359791009
359.0,0.0623694087530648
359.5,0.0627906479435891
360.0,0.0632623102715085
360.5,0.063789449510664
361.0,0.06437637776960772
361.5,0.06502638328877262
362.0,0.06574161614435849
362.5,0.06652284964439593
363.0,0.06736897802161833
363.5,0.06827593640414832
364.0,0.0692352320479383
364.5,0.0702325160272635
365.0,0.0712465009068406
365.5,0.0722489053304496
366.0,0.07320561302021165
366.5,0.07407912915982257
367.0,0.07483205745548986
367.5,0.07543114330558064
368.0,0.07585141137881365
368.5,0.07607975650452396
369.0,0.07611748703991786
369.5,0.07598143471131447
370.0,0.07570312020603193
370.5,0.07532576619741854
371.0,0.07489926436448727
371.5,0.07447371920026179
372.0,0.07409274146509555
372.5,0.07378802616388654
373.0,0.07357641123265714
373.5,0.07346004981266854
374.0,0.07342949177106174
374.5,0.07346845023994016
375.0,0.07355885266076961
375.5,0.07368489954692294
376.0,0.07383517995448674
376.5,0.07400284338785984
377.0,0.07418425533373851
377.5,0.07437679726627562
378.0,0.07457671375409873
378.5,0.07477767882803889
379.0,0.07497058779932696
379.5,0.07514481258565846
380.0,0.07529098250355731
380.5,0.07540450266425135
381.0,0.07548889429684703
381.5,0.07555780485081307
382.0,0.07563456405910121
382.5,0.07574915788943981
383.0,0.07593314498064993
383.5,0.07621380315113514
384.0,0.07660899742833502
384.5,0.07712391267127709
385.0,0.0777503376910415
385.5,0.07846827448369983
386.0,0.07924927626812157
386.5,0.08006077282815544
387.0,0.08087043190424056
387.5,0.08164999606683489
388.0,0.08237784250948353
388.5,0.0830401654020241
389.0,0.08363074884957196
389.5,0.08414991152521513
390.0,0.08460333980656055
390.5,0.0850015949418699
391.0,0.0853606955141199
391.5,0.08570357752955703
392.0,0.0860616834973803
392.5,0.08647564616885364
393.0,0.08699410554281559
393.5,0.08767037281723379
394.0,0.08855739976350087
394.5,0.08970202829722927
395.0,0.09113984242443084
395.5,0.09289163358837209
396.0,0.09496186870284597
396.5,0.09733881568251608
397.0,0.09999589515923599
397.5,0.10289348482285426
398.0,0.10598102369699648
398.5,0.10919955722999855
399.0,0.11248497675263636
399.5,0.11577196616323569
400.0,0.11899831900776815
400.5,0.12210896300471091
401.0,0.12505900478854612
401.5,0.12781538935369519
402.0,0.1303572936585726
402.5,0.13267551223336416
403.0,0.13477129831163967
403.5,0.1366549973971453
404.0,0.13834435944209636
404.5,0.1398626455717333
405.0,0.14123632202153738
405.5,0.14249257767374746
406.0,0.14365697867330637
406.5,0.144751590770448
407.0,0.14579372832637175
407.5,0.14679555060043953
408.0,0.1477642262712114
408.5,0.14870257488149619
409.0,0.14961002740049154
409.5,0.15048362648711322
410.0,0.15131906288527872
410.5,0.15211162966518488
411.0,0.15285716143529487
411.5,0.1535528769221164
412.0,0.1541982508838807
412.5,0.1547955074220717
413.0,0.15534966409149062
413.5,0.15586791080056078
414.0,0.1563583552496486
414.5,0.15682838486425182
415.0,0.15728285118211185
415.5,0.1577225849821871
416.0,0.15814364638044942
416.5,0.15853741394661125
417.0,0.15889182230748516
417.5,0.15919365033533517
418.0,0.15943162527427412
418.5,0.15959969666709992
419.0,0.15969956075998162
419.5,0.15974139370793833
420.0,0.15974203518369376
420.5,0.15972081485969006
421.0,0.1596940057743779
421.5,0.1596695920378525
422.0,0.15964422475693105
422.5,0.15960348713034175
423.0,0.15952560225623455
423.5,0.15938755779466537
424.0,0.1591716676879605
424.5,0.15887077249739087
425.0,0.15849055360637782
425.5,0.15804859032863325
426.0,0.15757080214854632
426.5,0.15708664239622255
427.0,0.15662458987852282
427.5,0.15620930357586263
428.0,0.1558608925404491
428.5,0.15559594016057549
429.0,0.15542954219126456
429.5,0.15537707513117763
430.0,0.15545478475422028
430.5,0.15567899094301899
431.0,0.15606421999201617
431.5,0.15662106603718648
432.0,0.15735450684716396
432.5,0.15826320531991017
433.0,0.15933989318592962
433.5,0.16057230391862018
434.0,0.16194438264737687
434.5,0.16343720125765196
435.0,0.16502955579699258
435.5,0.16669841118565307
436.0,0.16841932877303198
436.5,0.17016722186318134
437.0,0.17191729016957813
437.5,0.17364614982762624
438.0,0.17533296575048327
438.5,0.17696045850350012
439.0,0.1785158797649605
439.5,0.17999198880455178
440.0,0.18138807604999319
440.5,0.18271088330833313
441.0,0.1839749766614304
441.5,0.18520202612466558
442.0,0.1864185635234673
442.5,0.1876522584192969
443.0,0.18892720300234966
443.5,0.19025927157370387
444.0,0.1916526404590977
444.5,0.19309838234319338
445.0,0.19457545908908333
445.5,0.19605393594654716
446.0,0.19749968142497087
446.5,0.19887960024372991
447.0,0.20016644224969599
447.5,0.20134236368550384
448.0,0.20240077590434183
448.5,0.20334622373043665
449.0,0.2041925701603674
449.5,0.20495988003765264
450.0,0.20567079071536065
450.5,0.20634705469316142
451.0,0.20700682767543668
451.5,0.20766294410832425
452.0,0.20832209142865554
452.5,0.20898474276992782
453.0,0.2096456019836844
453.5,0.21029459577716222
454.0,0.2109184136688342
454.5,0.21150265970837792
455.0,0.2120345281631946
455.5,0.21250546886153493
456.0,0.21291325904462202
456.5,0.21326277627555482
457.0,0.21356502295018143
457.5,0.2138344873617979
458.0,0.21408562077134707
458.5,0.21432927367878982
459.0,0.2145702576781394
459.5,0.214806670184152
460.0,0.21503098436639342
460.5,0.21523257197889764
461.0,0.21540072876103933
461.5,0.21552733501529356
462.0,0.21560839754676636
462.5,0.2156441798854588
463.0,0.21563816552193904
463.5,0.2155954658763813
464.0,0.21552153299372145
464.5,0.21542179650001791
465.0,0.2153023615070939
465.5,0.21517123286525627
466.0,0.21503929252490658
466.5,0.2149200472647944
467.0,0.21482783139599226
467.5,0.21477493110106957
468.0,0.21476847493329485
468.5,0.2148084114730012
469.0,0.2148873253068568
469.5,0.2149921460471515
470.0,0.2151072436986108
470.5,0.21521789644416114
471.0,0.2153132196961329
471.5,0.21538793459912667
472.0,0.2154428787497347
472.5,0.21548433259260874
473.0,0.21552248057976386
473.5,0.21556932928314465
474.0,0.21563638177599004
474.5,0.21573234961347712
475.0,0.2158613797343558
475.5,0.21602200785221523
476.0,0.21620715386634864
476.5,0.2164050259795826
477.0,0.21660051113772943
477.5,0.21677670569417556
478.0,0.2169160084098047
478.5,0.21700081851434963
479.0,0.21701397210681772
479.5,0.2169392797723992
480.0,0.21676253884990768
480.5,0.21647305107130432
481.0,0.21606548299704043
481.5,0.21554164160029582
482.0,0.21491161921487825
482.5,0.21419395408423955
483.0,0.2134145077600459
483.5,0.21260417859476233
484.0,0.2117956900238761
484.5,0.21102009948100472
485.0,0.21030367164078204
485.5,0.20966586899785103
486.0,0.20911902269361252
486.5,0.2086696156059295
487.0,0.20832079702133344
487.5,0.20807512743551868
488.0,0.20793655255580615
488.5,0.2079107565997951
489.0,0.20800371450290217
489.5,0.20821878973229
490.0,0.20855331701807753
490.5,0.20899576001818898
491.0,0.20952447367461904
491.5,0.21010844902852385
492.0,0.21071001817856336
492.5,0.2112888713849542
493.0,0.21180651675502213
493.5,0.21223027253200136
494.0,0.21253614237455132
494.5,0.21271023797289237
495.0,0.21274862065963412
495.5,0.2126559404083922
496.0,0.21244314176210033
496.5,0.21212478988450137
497.0,0.21171655490750022
497.5,0.2112332556389813
498.0,0.21068774353994665
498.5,0.21009076472582347
499.0,0.20945156181341307
499.5,0.2087789813950938
500.0,0.20808253703926552
500.5,0.20737320773283308
501.0,0.2066636294536879
501.5,0.2059676588693992
502.0,0.20529951383982245
502.5,0.20467263012009582
503.0,0.20409871398044038
503.5,0.20358713573522003
504.0,0.20314480372398955
504.5,0.20277631461768114
505.0,0.20248414486781882
505.5,0.2022684561882995
506.0,0.20212646870577586
506.5,0.20205148942676446
507.0,0.20203197541945753
507.5,0.20205115935611423
508.0,0.202087633895798
508.5,0.20211698868134498
509.0,0.2021141988365046
509.5,0.20205626817396596
510.0,0.20192448653902562
510.5,0.20170586617429206
511.0,0.20139366660505917
511.5,0.20098723456027223
512.0,0.200491465583808
512.5,0.1999162704167633
513.0,0.19927604929036516
513.5,0.19858907935143366
514.0,0.1978766057484367
514.5,0.1971614853169079
515.0,0.19646642298880687
515.5,0.19581212635368483
516.0,0.19521570189281165
516.5,0.19468965129409244
517.0,0.1942415708810225
517.5,0.19387449241858698
518.0,0.19358761353077625
518.5,0.19337716317491857
519.0,0.19323728154794828
519.5,0.19316074075297476
520.0,0.1931395798467962
520.5,0.1931655976864772
521.0,0.19323071887593768
521.5,0.19332716176823322
522.0,0.19344746442849914
522.5,0.19358436513511482
523.0,0.1937306279691965
523.5,0.19387893660139036
524.0,0.19402185158194865
524.5,0.19415189208704184
525.0,0.1942617144302425
525.5,0.19434444460821265
526.0,0.19439419103457167
526.5,0.19440680368249608
527.0,0.19438084044918016
527.5,0.19431851909990472
528.0,0.19422631848085736
528.5,0.19411485459460903
529.0,0.19399777575425495
529.5,0.19388972885325131
530.0,0.19380374809614836
530.5,0.19374868232703904
531.0,0.19372732759667494
531.5,0.1937357574360169
532.0,0.19376398498717357
532.5,0.19379777339668133
533.0,0.19382108249605956
533.5,0.19381857141848838
534.0,0.19377771453833317
534.5,0.19369018872636287
535.0,0.1935524369900963
535.5,0.19336548487768115
536.0,0.19313415912613632
536.5,0.19286591089305125
537.0,0.1925694684614492
537.5,0.1922535251004878
538.0,0.1919256626766783
538.5,0.19159165354637944
539.0,0.1912552283010087
539.5,0.19091834329623003
540.0,0.19058182791911016
540.5,0.19024631217399096
541.0,0.18991316429104624
541.5,0.1895852201283838
542.0,0.18926711307714336
542.5,0.18896507060803291
543.0,0.18868622990802822
543.5,0.18843760383215943
544.0,0.18822494883078988
544.5,0.1880517708476204
545.0,0.187918748224081
545.5,0.18782363706191224
546.0,0.18776168808357718
546.5,0.1877264275877252
547.0,0.18771060596007513
547.5,0.18770703972507252
548.0,0.18770917955162247
548.5,0.18771129146935703
549.0,0.18770826052665843
549.5,0.18769515031762973
550.0,0.1876666864495962
550.5,0.18761684479193022
551.0,0.1875386980950896
551.5,0.18742458482657173
552.0,0.18726662419969456
552.5,0.1870574710351072
553.0,0.18679117244777954
553.5,0.18646397682011992
554.0,0.18607488611747736
554.5,0.18562585363742512
555.0,0.1851214906359411
555.5,0.184568352175192
556.0,0.18397392783995067
556.5,0.18334554057808725
557.0,0.18268947445579684
557.5,0.182010536593953
558.0,0.18131215585452407
558.5,0.18059695031769743
559.0,0.1798675108581049
559.5,0.17912702223225568
560.0,0.17837944962595717
560.5,0.17762914297850976
561.0,0.1768799589358526
561.5,0.1761342272053391
562.0,0.1753919385583729
562.5,0.17465047066192316
563.0,0.1739049613307824
563.5,0.1731491996845062
564.0,0.1723768123382954
564.5,0.17158241168231436
565.0,0.17076252266966255
565.5,0.16991620403906907
566.0,0.1690453421750218
566.5,0.16815465864599158
567.0,0.16725137045339633
567.5,0.16634452440703074
568.0,0.165443983221411
568.5,0.1645592630757472
569.0,0.16369848926961866
569.5,0.16286778778152797
570.0,0.16207131929780422
570.5,0.16131198220902573
571.0,0.16059254728277417
571.5,0.15991690088273713
572.0,0.15929094052327883
572.5,0.15872287583027342
573.0,0.15822282178665384
573.5,0.15780175727365886
574.0,0.1574701513089078
574.5,0.15723654404417226
575.0,0.15710642155655416
575.5,0.15708160325968276
576.0,0.1571602522822818
576.5,0.1573373665997852
577.0,0.15760559823334377
577.5,0.15795600238583518
578.0,0.15837853199276716
578.5,0.15886211599126732
579.0,0.15939437919786698
579.5,0.1599612270074121
580.0,0.16054651643233028
580.5,0.16113197391405823
581.0,0.16169747883719943
581.5,0.16222160573370256
582.0,0.16268235523045743
582.5,0.16305807083013293
583.0,0.1633285028749152
583.5,0.16347604924209447
584.0,0.1634870317994435
584.5,0.16335285725473112
585.0,0.16307068820511883
585.5,0.16264353593452044
586.0,0.16207961049521383
586.5,0.1613912782314648
587.0,0.16059389732883378
587.5,0.15970495466323295
588.0,0.1587436624109284
588.5,0.15773100927724293
589.0,0.1566900553242171
589.5,0.15564619156057305
590.0,0.15462710423964304
590.5,0.15366223139854887
591.0,0.15278162747049595
591.5,0.15201416569179724
592.0,0.15138519612118181
592.5,0.15091395403067343
593.0,0.1506111840558906
593.5,0.150477538980189
594.0,0.15050332303787714
594.5,0.1506697297565625
595.0,0.15095153166233272
595.5,0.1513206447643991
596.0,0.15174986886205846
596.5,0.1522160524747099
597.0,0.15270213008725286
597.5,0.15319776408446364
598.0,0.15369873106967694
598.5,0.15420534603697528
599.0,0.15472039783931962
599.5,0.1552471044682247
600.0,0.15578750100939837
600.5,0.1563415099853577
601.0,0.15690676435297615
601.5,0.15747907642311273
602.0,0.15805326301452638
602.5,0.1586240758210667
603.0,0.15918685106091818
603.5,0.1597378236496841
604.0,0.16027399767787745
604.5,0.1607927440742223
605.0,0.16129132760259204
605.5,0.16176654058187648
606.0,0.16221462110681692
606.5,0.1626314863488713
607.0,0.16301323405817164
607.5,0.16335678390057473
608.0,0.16366049365898877
608.5,0.16392459386780156
609.0,0.16415130241023157
609.5,0.16434461830015845
610.0,0.16450981551271893
610.5,0.1646528107221351
611.0,0.16477956994316603
611.5,0.16489568831754356
612.0,0.1650062473929261
612.5,0.1651158666096958
613.0,0.16522885970885304
613.5,0.16534935414998972
614.0,0.16548126475255853
614.5,0.16562807123869874
615.0,0.1657924586074743
615.5,0.16597583816907305
616.0,0.16617790543821603
616.5,0.16639628146849114
617.0,0.1666263805895469
617.5,0.16686151370194952
618.0,0.16709325398926664
618.5,0.16731193446501302
619.0,0.16750716096191068
619.5,0.16766820878427605
620.0,0.16778422126018003
620.5,0.16784434490764774
621.0,0.1678379120327821
621.5,0.16775491270431866
622.0,0.16758680973381967
622.5,0.16732768965417602
623.0,0.16697554153043145
623.5,0.16653335407678413
624.0,0.1660098088443587
624.5,0.16541933604844383
625.0,0.16478150689274965
625.5,0.16411976114204577
626.0,0.16345965299249332
626.5,0.16282683831898292
627.0,0.16224509037518106
627.5,0.16173469050316427
628.0,0.16131144878544726
628.5,0.16098650097420092
629.0,0.16076682064212114
629.5,0.1606561926977355
