wavelength,spectrum
629.5,0.004202079637637322
629.0,0.0042533491611703635
628.5,0.00435498542666126
628.0,0.004505394314671526
627.5,0.004702672636912974
627.0,0.004945020761566768
626.5,0.0052310861163882534
626.0,0.005560173206457255
625.5,0.0059322400676825185
625.0,0.0063477400405431645
624.5,0.006807319325026161
624.0,0.007311424512877595
623.5,0.007860029036474927
623.0,0.00845249271635993
622.5,0.009087693299255798
622.0,0.009764489730196
621.5,0.010482274001058244
621.0,0.011241470524779
620.5,0.01204363840555313
620.0,0.012890954675886768
619.5,0.013785232603348864
619.0,0.014726736111033409
618.5,0.015713419595707538
618.0,0.01674106799700572
617.5,0.01780444301990086
617.0,0.01889912771104641
616.5,0.02002318688918469
616.0,0.02117776167574476
615.5,0.022366060889166026
615.0,0.023590889200728583
614.5,0.0248516714216654
614.0,0.026142252483724444
613.5,0.027450578051775545
613.0,0.02876059390283424
612.5,0.030055693934755382
612.0,0.031322452424500415
611.5,0.032553191986373214
611.0,0.033746470316139573
610.5,0.034905499820236816
610.0,0.03603532999910072
609.5,0.03714000097178605
609.0,0.03822083817592081
608.5,0.03927635998310313
608.0,0.04030361273813322
607.5,0.04130026114541704
607.0,0.04226633717004497
606.5,0.04320515315899103
606.0,0.044122907637764316
605.5,0.04502711928405339
605.0,0.04592453371247904
604.5,0.04681879305265002
604.0,0.04770858009634797
603.5,0.04858651738148949
603.0,0.04943897473745205
602.5,0.050247103096308365
602.0,0.05098904411332494
601.5,0.05164330512453245
601.0,0.05219292548575824
600.5,0.05262959063307537
600.0,0.052956696638148934
599.5,0.05319031224612582
599.0,0.053357414994575934
598.5,0.05349158022680062
598.0,0.053627119170937466
597.5,0.05379322884892075
597.0,0.05400962140803132
596.5,0.054284817422029986
596.0,0.05461707520688661
595.5,0.05499725736882479
595.0,0.05541250960939855
594.5,0.05584943590178005
594.0,0.056296029695471934
593.5,0.056742110226204935
593.0,0.05717853321875326
592.5,0.05759580828584774
592.0,0.05798290056736316
591.5,0.05832690084685155
591.0,0.058613924531484625
590.5,0.0588312880122297
590.0,0.058970338921737024
589.5,0.05902913516658974
589.0,0.05901394633228897
588.5,0.05893890947680919
588.0,0.05882392289230905
587.5,0.05869131063356552
587.0,0.058562410891533224
586.5,0.05845498798352336
586.0,0.05838199908920131
585.5,0.058351644905216625
585.0,0.058368185352524075
584.5,0.058432958596783886
584.0,0.05854523305975488
583.5,0.058702819718889465
583.0,0.0589026507201252
582.5,0.0591414874841801
582.0,0.059416816052285215
581.5,0.05972767226404836
581.0,0.06007513812905055
580.5,0.060462277101258816
580.0,0.06089340170250743
579.5,0.06137316791650031
579.0,0.0619056648624538
578.5,0.06249391286107332
578.0,0.06313985077821771
577.5,0.06384452294195726
577.0,0.06460805465919266
576.5,0.06542919691080329
576.0,0.06630415718261247
575.5,0.06722498742814043
575.0,0.0681780794395041
574.5,0.06914315135070115
574.0,0.07009337104244795
573.5,0.07099668929445553
573.0,0.07181832794777432
572.5,0.07252406889971794
572.0,0.07308388598196706
571.5,0.07347556677723792
571.0,0.07368784141509252
570.5,0.07372264187691209
570.0,0.0735961619300881
569.5,0.07333817562254857
569.0,0.07298933980212956
568.5,0.0725965020223672
568.0,0.07220656824425871
567.5,0.07186009598781705
567.0,0.07158611508096067
566.5,0.07139936897890924
566.0,0.07130061481319762
565.5,0.07127974237253895
565.0,0.07132049468543286
564.5,0.07140539688275384
564.0,0.07151962288050459
563.5,0.07165290311846677
563.0,0.07179951473919521
562.5,0.07195682340290137
562.0,0.07212307742253407
561.5,0.07229532867548896
561.0,0.07246813093971932
560.5,0.07263345166295301
560.0,0.07278196648696883
559.5,0.07290577121250784
559.0,0.07300171465371069
558.5,0.07307450000638169
558.0,0.07313847529062582
557.5,0.07321705963843038
557.0,0.07333972301119243
556.5,0.07353700092093056
556.0,0.07383477577055993
555.5,0.07424926156657362
555.0,0.07478379475326184
554.5,0.07542815621925518
554.0,0.07616027439839049
553.5,0.07694977989863112
553.0,0.07776269241818727
552.5,0.07856619426579857
552.0,0.07933278634685402
551.5,0.08004292745263156
551.0,0.08068595370034176
550.5,0.08125931345110822
550.0,0.08176684639914109
549.5,0.08221702229525246
549.0,0.08262210381328397
548.5,0.08299868328978423
548.0,0.08336931203606035
547.5,0.08376433864313343
547.0,0.08422278194123177
546.5,0.08479121166023426
546.0,0.08552039296755375
545.5,0.08646026656664671
545.0,0.0876543130498793
544.5,0.08913464359878727
544.0,0.09091879254998103
543.5,0.09300848166332894
543.0,0.09538992951731168
542.5,0.09803526512751623
542.0,0.10090428445446208
541.5,0.1039464714338801
541.0,0.1071034945391634
540.5,0.1103124211756193
540.0,0.1135096779412982
539.5,0.11663537781001243
539.0,0.11963732715384764
538.5,0.122474007516944
538.0,0.1251161106453811
537.5,0.12754675257182566
537.0,0.12976062979633196
536.5,0.13176260223119646
536.0,0.13356609645227605
535.5,0.13519123300274535
535.0,0.13666280612455045
534.5,0.1380079372080406
534.0,0.13925357917255635
533.5,0.14042420367726552
533.0,0.1415400134153224
532.5,0.14261582054055005
532.0,0.14366082237470376
531.5,0.14467897863069235
531.0,0.14566983738608788
530.5,0.14662963423324385
530.0,0.14755238820565972
529.5,0.14843101188256844
529.0,0.14925837352617538
528.5,0.15002843042302413
528.0,0.15073732480572932
527.5,0.15138449058187342
527.0,0.15197327228591262
526.5,0.1525108771606601
526.0,0.15300742751969232
525.5,0.15347422139054642
525.0,0.15392157628093914
524.5,0.15435660087384406
524.0,0.15478150825490236
523.5,0.15519287426984402
523.0,0.15558188527848466
522.5,0.1559357934423313
522.0,0.15624039701641154
521.5,0.15648325648365555
521.0,0.15665702545723434
520.5,0.1567619948897637
520.0,0.15680686898947446
519.5,0.15680705997687078
519.0,0.15678069178237802
518.5,0.15674328750650116
518.0,0.15670277629359436
517.5,0.1566566643996016
517.0,0.15659241272918242
516.5,0.1564910804300945
516.0,0.15633320178810173
515.5,0.15610490304283514
515.0,0.15580251418783442
514.5,0.15543428301721082
514.0,0.1550189741977173
513.5,0.15458214987730198
513.0,0.15415156439167085
512.5,0.15375318885287492
512.0,0.15340903705457098
511.5,0.15313701023916967
511.0,0.15295220609191865
510.5,0.1528688431159131
510.0,0.1529015964801779
509.5,0.15306563199622514
509.0,0.1533753583889781
508.5,0.15384240381031372
508.0,0.1544736946962897
507.5,0.15527030221327806
507.0,0.15622744327683094
506.5,0.15733554540203015
506.0,0.15858166698903728
505.5,0.15995088015225598
505.0,0.1614270206109426
504.5,0.16299281924353398
504.0,0.1646297269243281
503.5,0.1663177174070568
503.0,0.16803555446890436
502.5,0.16976147443441653
502.0,0.1714742720943394
501.5,0.17315452069684878
501.0,0.17478569875695987
500.5,0.1763552441425006
500.0,0.17785554135646325
499.5,0.17928490784017054
499.0,0.18064848920335666
498.5,0.18195867220348105
498.0,0.18323450681179745
497.5,0.18449969531013835
497.0,0.18577914468071266
496.5,0.1870945267803752
496.0,0.1884598304047051
495.5,0.18987798663406255
495.0,0.19133949372378656
494.5,0.19282339262569004
494.0,0.1943004787874648
493.5,0.1957380037174644
493.0,0.1971048809846548
492.5,0.1983763916927585
492.0,0.19953752100258906
491.5,0.2005844853086004
491.0,0.2015242775055672
490.5,0.20237260442920485
490.0,0.20315068197399425
489.5,0.20388167171152072
489.0,0.20458737024313384
488.5,0.2052856215026944
488.0,0.2059886395969852
487.5,0.2067021419139183
487.0,0.20742522246613296
486.5,0.20815080468633432
486.0,0.20886675440655947
485.5,0.20955767206791026
485.0,0.21020736740655974
484.5,0.21080185536696547
484.0,0.2113322550157792
483.5,0.21179695553415875
483.0,0.21220230562803308
482.5,0.21256138468869784
482.0,0.21289096967154889
481.5,0.21320752510559396
481.0,0.2135231686648888
480.5,0.21384287501026125
480.0,0.21416366924690072
479.5,0.21447588081284927
479.0,0.21476609102471875
478.5,0.21502073822681075
478.0,0.21522936109496546
477.5,0.21538655711677301
477.0,0.2154922802268111
476.5,0.2155507046669136
476.0,0.21556834415569814
475.5,0.2155523989912052
475.0,0.21551004556037134
474.5,0.21544889356881472
474.0,0.21537808498923694
473.5,0.21530926155655986
473.0,0.21525639325705692
472.5,0.21523410943692026
472.0,0.21525494430626652
471.5,0.2153262763563388
471.0,0.21544825380368804
470.5,0.21561343801737454
470.0,0.21580829842311905
469.5,0.21601615253947687
469.0,0.21622062125368416
468.5,0.21640876963304076
468.0,0.21657324595691085
467.5,0.21671323349482868
467.0,0.2168341323784385
466.5,0.2169461561271193
466.0,0.21706211107676365
465.5,0.2171946782816274
465.0,0.21735358752152475
464.5,0.21754330337041827
464.0,0.21776159966266692
463.5,0.2179994389962869
463.0,0.21824208229131303
462.5,0.21847098742909046
462.0,0.21866604324753125
461.5,0.21880739908531135
461.0,0.21887676320265506
460.5,0.21885814426927053
460.0,0.21873832685233985
459.5,0.21850747116178412
459.0,0.21815997960503614
458.5,0.21769562644295795
458.0,0.2171206896006008
457.5,0.2164486656232575
457.0,0.21570025864431466
456.5,0.2149023300608228
456.0,0.21408583744506807
455.5,0.2132829175247906
455.0,0.2125236742324117
454.5,0.2118332690355252
454.0,0.2112300654368613
453.5,0.2107253784763391
453.0,0.21032476568362451
452.5,0.21003047580213494
452.0,0.2098440473027802
451.5,0.2097681178712704
451.0,0.20980664876809454
450.5,0.20996348336002468
450.0,0.21023963051121367
449.5,0.2106301950908594
449.0,0.21112194581483204
448.5,0.21169240321934046
448.0,0.21231070888013465
447.5,0.21294017583168465
447.0,0.21354193918231448
446.5,0.21407894929002533
446.0,0.21451955931434968
445.5,0.2148401762097484
445.0,0.2150267056298709
444.5,0.21507464230355286
444.0,0.21498809816570694
443.5,0.2147779424575896
443.0,0.21445948080553254
442.5,0.21405011420194175
442.0,0.21356732479596188
441.5,0.21302724769524425
441.0,0.21244402023860404
440.5,0.21182975551040192
440.0,0.21119505979525027
439.5,0.21054970708324447
439.0,0.20990333987440915
438.5,0.20926592950144188
438.0,0.20864789520843552
437.5,0.2080599411155196
437.0,0.20751257663421133
436.5,0.20701561252663853
436.0,0.20657767105469335
435.5,0.20620583849108826
435.0,0.20590534271211366
434.5,0.20567918402857388
434.0,0.20552746665829208
433.5,0.20544652649861248
433.0,0.2054280201245111
432.5,0.2054583357787305
432.0,0.20551873138632507
431.5,0.20558643716110786
431.0,0.20563666519095328
430.5,0.20564510529352967
430.0,0.2055904263958846
429.5,0.2054562071293822
429.0,0.2052319823860891
428.5,0.20491342737795484
428.0,0.20450195876942334
427.5,0.20400407978445198
427.0,0.2034308184747971
426.5,0.20279722898445499
426.0,0.20212184148408133
425.5,0.20142582162836484
425.0,0.20073168445245235
424.5,0.20006159462587356
424.0,0.1994355826719366
423.5,0.1988700163489432
423.0,0.19837670144857264
422.5,0.1979627315003564
422.0,0.19763098285582897
421.5,0.19738096730703347
421.0,0.1972097079532858
420.5,0.19711246288521372
420.0,0.19708314956573905
419.5,0.19711460394933986
419.0,0.19719873993817288
418.5,0.1973267375800231
418.0,0.1974892639140108
417.5,0.1976767964972921
417.0,0.19787997374005387
416.5,0.1980899354391463
416.0,0.1982986399505724
415.5,0.19849904432784748
415.0,0.1986851381595064
414.5,0.19885181767867835
414.0,0.19899472993718226
413.5,0.19911022435095654
413.0,0.19919560574678213
412.5,0.1992497602157263
412.0,0.1992739969666893
411.5,0.19927277677848249
411.0,0.19925391436128456
410.5,0.19922791204858253
410.0,0.19920638101340976
409.5,0.19919981716720436
409.0,0.19921530128752246
408.5,0.19925477426770674
408.0,0.19931439754972555
407.5,0.19938514956073244
407.0,0.19945447973958025
406.5,0.19950852236811906
406.0,0.19953428918703656
405.5,0.1995214324387277
405.0,0.1994632993822836
404.5,0.19935726274001808
404.0,0.19920447422815468
403.5,0.19900919824085267
403.0,0.19877790974010653
402.5,0.19851828318180606
402.0,0.1982381832205992
401.5,0.19794478716709868
401.0,0.1976439433506336
400.5,0.1973398854217563
400.0,0.1970353813679864
399.5,0.1967322534275309
399.0,0.19643218907662066
398.5,0.19613757744178945
398.0,0.1958521298268583
397.5,0.19558107846976566
397.0,0.19533082922656586
396.5,0.19510816036101872
396.0,0.19491914213957998
395.5,0.19476807015336792
395.0,0.19465666058030856
394.5,0.19458373986001326
394.0,0.19454543743978067
393.5,0.19453583902415192
393.0,0.19454789023938576
392.5,0.19457433939122795
392.0,0.1946084582922384
391.5,0.19464441642733848
391.0,0.19467725249994586
390.5,0.19470250890875035
390.0,0.19471570237144056
389.5,0.19471180799957935
389.0,0.19468492436110052
388.5,0.1946282268537375
388.0,0.19453422730177924
387.5,0.1943953244525396
387.0,0.1942045429367246
386.5,0.19395633845405774
386.0,0.19364735784800005
385.5,0.1932769875280418
385.0,0.19284758567209384
384.5,0.19236424981255176
384.0,0.1918341576451825
383.5,0.19126555199993087
383.0,0.19066655942951985
382.5,0.19004416679559266
382.0,0.1894035897355039
381.5,0.18874821364731434
381.0,0.18808009970547615
380.5,0.187400847896636
380.0,0.18671245418003712
379.5,0.1860178298596992
379.0,0.18532073048613285
378.5,0.1846250765964328
378.0,0.1839339047515751
377.5,0.1832483124705833
377.0,0.1825667966707213
376.5,0.1818852484846405
376.0,0.18119761852227945
375.5,0.18049711037890487
375.0,0.1797775636684999
374.5,0.17903472480513696
374.0,0.17826716972252055
373.5,0.17747674194980345
373.0,0.1766685001199782
372.5,0.17585017235518652
372.0,0.17503124493743008
371.5,0.17422177804627856
371.0,0.17343120442374288
370.5,0.17266735780915068
370.0,0.17193597608818664
369.5,0.1712407982989323
369.0,0.1705842132364371
368.5,0.1699682373407215
368.0,0.16939556445507362
367.5,0.16887033286715528
367.0,0.16839845449980964
366.5,0.1679874223629544
366.0,0.16764563324592216
365.5,0.16738141691291294
365.0,0.1672019418699287
364.5,0.16711225217111372
364.0,0.1671146024068415
363.5,0.16720823201402976
363.0,0.16738952627647935
362.5,0.1676525157512177
362.0,0.16798941131849654
361.5,0.16839103557010124
361.0,0.16884698672061332
360.5,0.16934552203401287
360.0,0.16987329430912054
359.5,0.17041508143115094
359.0,0.17095365567750834
358.5,0.17146992928164742
358.0,0.17194336830965232
357.5,0.17235269178518778
357.0,0.17267688475889906
356.5,0.17289648917971834
356.0,0.17299509654776446
355.5,0.1729608035746845
355.0,0.1727873818263518
354.5,0.17247474491370784
354.0,0.17202864188870326
353.5,0.17145949208591146
353.0,0.1707808259683473
352.5,0.170007736218884
352.0,0.16915587383948244
351.5,0.16824120622857122
351.0,0.16728052383222092
350.5,0.16629239628861842
350.0,0.16529813600699367
349.5,0.16432234165933648
349.0,0.1633926767298816
348.5,0.16253874232185092
348.0,0.1617900256588274
347.5,0.1611731693734425
347.0,0.16070898555229388
346.5,0.16040978423866695
346.0,0.16027760206973107
345.5,0.16030387664453238
345.0,0.16047065407938815
344.5,0.1607532309944845
344.0,0.16112365386665994
343.5,0.16155439677947214
343.0,0.16202152531289415
342.5,0.16250681205038406
342.0,0.16299855358854914
341.5,0.16349118987186348
341.0,0.16398395990672304
340.5,0.16447902919874094
340.0,0.16497954295858736
339.5,0.1654880212088186
339.0,0.16600535101533034
338.5,0.1665304562171506
338.0,0.16706057419293785
337.5,0.16759186762440365
337.0,0.16812015768274652
336.5,0.1686414359032639
336.0,0.16915212732881113
335.5,0.1696490372981996
335.0,0.17012913439005795
334.5,0.17058932215721592
334.0,0.1710263155841699
333.5,0.17143670016709608
333.0,0.17181714850307844
332.5,0.17216473747353647
332.0,0.17247727990138992
331.5,0.1727536126069623
331.0,0.1729938022777053
330.5,0.17319922435526888
330.0,0.17337254415955644
329.5,0.1735175727334357
329.0,0.17363905299717508
328.5,0.17374240701220645
328.0,0.17383346473503214
327.5,0.17391823747540766
327.0,0.17400270183818953
326.5,0.17409260317567882
326.0,0.17419325840856015
325.5,0.17430932916956038
325.0,0.17444454185518424
324.5,0.1746013902026177
324.0,0.17478077807488096
323.5,0.17498172104617712
323.0,0.17520111941207633
322.5,0.17543372701192012
322.0,0.17567233989451414
321.5,0.17590820948909874
321.0,0.1761315565031902
320.5,0.17633205740692262
320.0,0.17649918329983946
319.5,0.17662234138493846
319.0,0.17669097059837566
318.5,0.17669474688513134
318.0,0.17662412580221326
317.5,0.17647125674308276
317.0,0.1762312015021198
316.5,0.17590318492757914
316.0,0.17549154350988685
315.5,0.17500613999519565
315.0,0.17446207639723482
314.5,0.17387876249178102
314.0,0.17327844846995852
313.5,0.17268446971381707
313.0,0.17211944232599086
312.5,0.17160364929127556
312.0,0.171153860305574
311.5,0.17078274353617204
311.0,0.1704989183835489
310.5,0.17030756343415152
310.0,0.17021135641428015
