wavelength,spectrum
629.5,0.007748520392249422
629.0,0.007841147389602916
628.5,0.008023815158324791
628.0,0.008291913490847711
627.5,0.008639777788931019
627.0,0.009061799719437805
626.5,0.009553340995903712
626.0,0.01011125374709324
625.5,0.010733864049495698
625.0,0.0114204889736522
624.5,0.012170687585161552
624.0,0.012983522294790995
623.5,0.013857265009887538
623.0,0.014789564717699738
622.5,0.015778127030222487
622.0,0.016821713644114236
621.5,0.017920855125509384
621.0,0.01907803175468252
620.5,0.02029696916627177
620.0,0.021581021355822683
619.5,0.022931218393406626
619.0,0.0243445826766141
618.5,0.02581363967396005
618.0,0.02732761963045889
617.5,0.028875193220281925
617.0,0.03044797173600105
616.5,0.03204327664197697
616.0,0.033664814836464815
615.5,0.03532060788138622
615.0,0.03701855403888825
614.5,0.03876123984683101
614.0,0.04054210367248698
613.5,0.042344641938412274
613.0,0.044145162281202265
612.5,0.04591802691902784
612.0,0.047641432963149564
611.5,0.049301529369381696
611.0,0.05089352564983415
610.5,0.05241984290452308
610.0,0.053886517860063037
609.5,0.055299614470483184
609.0,0.056663212295283476
608.5,0.05797950176455977
608.0,0.0592505275864753
607.5,0.060480468346222935
607.0,0.06167691439934631
606.5,0.0628506590153886
606.0,0.06401369650513103
605.5,0.0651760650658417
605.0,0.0663428234735042
604.5,0.06751165540853311
604.0,0.0686719407118886
603.5,0.06980527619689943
603.0,0.07088706462610532
602.5,0.0718891236825179
602.0,0.07278297987860935
601.5,0.07354384214816746
601.0,0.0741550186502417
600.5,0.07461205786811262
600.0,0.07492564049304071
599.5,0.07512204055364466
599.0,0.07524038357210258
598.5,0.07532690429787878
598.0,0.07542738440728285
597.5,0.07557972271737103
597.0,0.07580853523772031
596.5,0.07612328153391007
596.0,0.07651982907020673
595.5,0.07698449886759988
595.0,0.07749908606802197
594.5,0.07804509284225501
594.0,0.07860622665934472
593.5,0.07916886420696176
593.0,0.07972079935449984
592.5,0.08024914345394421
592.0,0.08073843210747186
591.5,0.0811699288946436
591.0,0.08152275122782851
590.5,0.08177698975839108
590.0,0.081918032037432
589.5,0.08194090328973642
589.0,0.08185302362510842
588.5,0.08167419041757577
588.0,0.08143371338520297
587.5,0.08116539465643156
587.0,0.08090207408846999
586.5,0.08067128855395986
586.0,0.08049302354128368
585.5,0.08037959935314838
585.0,0.08033699679747093
584.5,0.08036663479574148
584.0,0.0804668995818904
583.5,0.08063420331790039
583.0,0.0808637476924934
582.5,0.08115035206188947
582.0,0.0814895609724972
581.5,0.08187878731395101
581.0,0.0823182236241675
580.5,0.08281105490602618
580.0,0.08336265728625919
579.5,0.08397931709803746
579.0,0.08466658283190573
578.5,0.08542797075946963
578.0,0.08626444051786543
577.5,0.08717452383875418
577.0,0.08815478330174795
576.5,0.08920021182354625
576.0,0.09030383030945104
575.5,0.0914553971193556
575.0,0.092639585958847
574.5,0.09383407622116008
574.0,0.09500864288064834
573.5,0.09612575864912357
573.0,0.0971430290433943
572.5,0.09801715808795257
572.0,0.09870880047042176
571.5,0.09918763210312573
571.0,0.0994367944698328
570.5,0.09945613357226232
570.0,0.09926382688030554
569.5,0.09889578044636768
569.0,0.09840248075325772
568.5,0.0978432612510822
568.0,0.09727863450607806
567.5,0.09676205145269964
567.0,0.09633300310790884
566.5,0.09601313055028357
566.0,0.0958062028343009
565.5,0.09570181384756134
565.0,0.09568128991361906
564.5,0.09572396023693988
564.0,0.0958121339559039
563.5,0.09593351855939902
563.0,0.09608109910030134
562.5,0.09625111272158154
562.0,0.09644006950547256
561.5,0.09664204422039673
561.0,0.09684716701976047
560.5,0.09704188644865247
560.0,0.09721118447561523
559.5,0.09734267658732992
559.0,0.0974313830205386
558.5,0.09748395293416193
558.0,0.09752083604064853
557.5,0.09757506262011358
557.0,0.09768766129368968
556.5,0.09790050874549376
556.0,0.09824840220361572
555.5,0.09875231844072883
555.0,0.09941531068607888
554.5,0.1002219325342911
554.0,0.10114087157842293
553.5,0.10213000936280456
553.0,0.1031429208102225
552.5,0.10413539016820414
552.0,0.10507104217546658
551.5,0.10592486518041973
551.0,0.1066843330343121
550.5,0.10734818272238314
550.0,0.10792381137405377
549.5,0.1084246163605397
549.0,0.10886865194785413
548.5,0.10927927231351298
548.0,0.10968738042210184
547.5,0.1101340295858498
547.0,0.11067166579667004
546.5,0.11136252891944723
546.0,0.11227389190592278
545.5,0.11347099834132532
545.0,0.1150092736457874
544.5,0.11692777919694587
544.0,0.11924526431640245
543.5,0.12195910228763768
543.0,0.1250463956170617
542.5,0.128466452940819
542.0,0.1321635036921402
541.5,0.13606954099763735
541.0,0.1401075930087045
540.5,0.1441958296157568
540.0,0.14825261638450404
539.5,0.1522020103706577
539.0,0.1559788129855669
538.5,0.15953224390529516
538.0,0.1628276528981346
537.5,0.16584648220484752
537.0,0.16858483524344414
536.5,0.1710513195055148
536.0,0.1732647745234143
535.5,0.17525176374344129
535.0,0.17704404245864214
534.5,0.1786757219846869
534.0,0.18018029336954144
533.5,0.18158789431666272
533.0,0.18292321981972934
532.5,0.18420429461422308
532.0,0.18544241972011544
531.5,0.18664293200862853
531.0,0.1878064891661939
530.5,0.1889305395208556
530.0,0.1900105159045046
529.5,0.19104073046663775
529.0,0.19201498529098068
528.5,0.19292724218818186
528.0,0.1937724387998314
527.5,0.19454771046060626
527.0,0.19525346871247412
526.5,0.1958940655331921
526.0,0.1964775922269228
525.5,0.19701469758644571
525.0,0.19751663387412305
524.5,0.1979927581508125
524.0,0.19844817654865216
523.5,0.19888211691079
523.0,0.19928731106828654
522.5,0.19965093915703486
522.0,0.19995714525976968
521.5,0.20019091720092205
521.0,0.20034250200760206
520.5,0.20041108495117696
520.0,0.2004063269259148
519.5,0.20034661354470346
519.0,0.20025419842216147
518.5,0.20014846647066525
518.0,0.2000394377282853
517.5,0.19992400023067067
517.0,0.1997863231341194
516.5,0.1996026206560028
516.0,0.1993488993626891
515.5,0.19900903050179872
515.0,0.19858072723866735
514.5,0.19807748894196892
514.0,0.19752616810437154
513.5,0.1969612991784325
513.0,0.19641830367241256
512.5,0.19592783410606734
512.0,0.1955130324249092
511.5,0.19519005094142888
511.0,0.1949709296623381
510.5,0.19486739103911327
510.0,0.19489361896881935
509.5,0.19506677880684092
509.0,0.19540527427266288
508.5,0.19592553367935886
508.0,0.19663874137222725
507.5,0.19754871137806887
507.0,0.1986515869114412
506.5,0.19993728389166587
506.0,0.20139166496292932
505.5,0.20299872487594592
505.0,0.20474179919196672
504.5,0.20660365869957173
504.0,0.20856583772618525
503.5,0.21060759907062807
503.0,0.2127054036478153
502.5,0.21483307440550856
502.0,0.216962890841564
501.5,0.21906747613666286
501.0,0.22112205433940024
500.5,0.22310685666949154
500.0,0.2250093002542992
499.5,0.2268256943640569
499.0,0.2285622333686499
498.5,0.2302348458059724
498.0,0.2318675290650047
497.5,0.233488968601108
497.0,0.2351277189047847
496.5,0.23680667833104665
496.0,0.2385381178304389
495.5,0.2403204494018425
495.0,0.24213760296838416
494.5,0.2439611583234296
494.0,0.24575478769700804
493.5,0.2474799662491884
493.0,0.2491018376080025
492.5,0.2505941472014789
492.0,0.251942515925606
491.5,0.2531457084660898
491.0,0.2542147370729349
490.5,0.25517027299081874
490.0,0.25603882380487863
489.5,0.25684857504901343
489.0,0.2576256761939884
488.5,0.2583915225967799
488.0,0.2591612087506102
487.5,0.2599429139341985
487.0,0.2607379347062821
486.5,0.26154103829078423
486.0,0.2623412556568659
485.5,0.2631232897692021
485.0,0.26386978130952826
484.5,0.2645644936572017
484.0,0.2651957449510183
483.5,0.2657592851395237
483.0,0.2662595925516855
482.5,0.26670887163060153
482.0,0.26712382277814817
481.5,0.2675211989348777
481.0,0.2679132850635952
480.5,0.2683048324384289
480.0,0.2686922873799834
479.5,0.2690652663992841
479.0,0.2694098145572473
478.5,0.2697122280363952
478.0,0.2699623514647658
477.5,0.27015543485267635
477.0,0.27029221822867344
476.5,0.2703775840610257
476.0,0.2704185872685955
475.5,0.2704229069470377
475.0,0.2703984961659189
474.5,0.2703545748754186
474.0,0.2703032084410396
473.5,0.2702604700307292
473.0,0.27024594157541365
472.5,0.270280144878783
472.0,0.2703805704800576
471.5,0.2705574447883289
471.0,0.27081094090920604
470.5,0.2711308459442396
470.0,0.27149877441479725
469.5,0.2718922779083767
469.0,0.2722895507895677
468.5,0.2726735517445392
468.0,0.2730346145526789
467.5,0.27337137330203515
467.0,0.27368995628081905
466.5,0.2740018432933801
466.0,0.2743208352338493
465.5,0.2746596021998806
465.0,0.2750263094078208
464.5,0.2754220054377072
464.0,0.2758391094235371
463.5,0.27626141279802546
463.0,0.2766655144077258
462.5,0.2770232031450072
462.0,0.2773044239408205
461.5,0.27748000910848825
461.0,0.2775240115801157
460.5,0.2774154812265712
460.0,0.2771397607201401
459.5,0.2766895388038876
459.0,0.2760656828831604
458.5,0.27527783785799603
458.0,0.2743446252986999
457.5,0.27329315115054675
457.0,0.2721577095290273
456.5,0.2709774919691032
456.0,0.26979352063481393
455.5,0.2686450725484811
455.0,0.2675662702532905
454.5,0.2665835095130322
454.0,0.2657144168798645
453.5,0.2649687568053455
453.0,0.26435094517547725
452.5,0.2638634674667939
452.0,0.2635098969408692
451.5,0.26329645263190304
451.0,0.2632313011608309
450.5,0.2633218220165982
450.0,0.26357055405348345
449.5,0.2639711511499809
449.0,0.2645056124238096
448.5,0.2651437527256244
448.0,0.2658450579207711
447.5,0.26656254157245113
447.0,0.2672477264248615
446.5,0.2678556883478422
446.0,0.2683493062688809
445.5,0.2687021840224206
445.0,0.2689000535012757
444.5,0.2689406343729676
444.0,0.2688323218196169
443.5,0.2685918897803066
443.0,0.26824160747202463
442.5,0.2678061697719408
442.0,0.26730982773921963
441.5,0.26677405050168435
441.0,0.2662160897392584
440.5,0.2656484750690521
440.0,0.26507954149732593
439.5,0.2645146616641686
439.0,0.2639579883813228
438.5,0.26341422237169543
438.0,0.2628899143183678
437.5,0.2623940498549896
437.0,0.26193759209824696
436.5,0.2615322458338724
436.0,0.26118872302287816
435.5,0.2609150046676821
435.0,0.26071491386442097
434.5,0.2605872657871203
434.0,0.26052543163374153
433.5,0.2605173835988284
433.0,0.2605461118008733
432.5,0.2605904472840175
432.0,0.26062644146964903
431.5,0.26062924728611736
431.0,0.2605753205488575
430.5,0.2604444267190103
430.0,0.26022112218986176
429.5,0.2598953730893501
429.0,0.2594623679780536
428.5,0.2589219750865134
428.0,0.2582783369878457
427.5,0.2575399249443394
427.0,0.2567201225419291
426.5,0.2558377972852142
426.0,0.2549173138547102
425.5,0.2539874559007929
425.0,0.25307916071832753
424.5,0.25222244468623994
424.0,0.2514433223540523
423.5,0.2507615014544201
423.0,0.25018941907272285
422.5,0.2497326842145352
422.0,0.24939149954156906
421.5,0.2491624210190128
421.0,0.2490397923059825
420.5,0.24901659005408225
420.0,0.2490846176365315
419.5,0.2492343605429376
419.0,0.24945485394767103
418.5,0.24973382740692185
418.0,0.25005815352963456
417.5,0.25041460634951895
417.0,0.2507906731267224
416.5,0.2511752984141243
416.0,0.2515594407752096
415.5,0.2519362694081718
415.0,0.2523010298979561
414.5,0.2526505647919915
414.0,0.2529826836588727
413.5,0.2532955837332048
413.0,0.2535876110927073
412.5,0.2538575612596485
412.0,0.2541054084328858
411.5,0.2543331601357436
411.0,0.2545453690374553
410.5,0.25474882291109874
410.0,0.2549512863133772
409.5,0.2551594491300557
409.0,0.2553766694752048
408.5,0.2556012381858953
408.0,0.255825781338728
407.5,0.2560380510080233
407.0,0.2562229613193081
406.5,0.25636530168000954
406.0,0.2564524188628081
405.5,0.25647630086880524
405.0,0.2564346417029805
404.5,0.2563308247245649
404.0,0.25617301589471114
403.5,0.25597265968995353
403.0,0.2557427563260017
402.5,0.25549620357112146
402.0,0.25524441832423195
401.5,0.25499638573548983
401.0,0.25475816379146404
400.5,0.25453286474105324
400.0,0.2543210992014828
399.5,0.2541217755342421
399.0,0.2539331695588965
398.5,0.2537540274195881
398.0,0.2535844686730332
397.5,0.2534264834359134
397.0,0.25328384292285816
396.5,0.2531614739848025
396.0,0.25306442162275994
395.5,0.2529967041770805
395.0,0.2529603102355803
394.5,0.25295464289475705
394.0,0.2529764663209132
393.5,0.25302035369320186
393.0,0.2530794844019849
392.5,0.2531465641024105
392.0,0.2532145924875043
391.5,0.2532773048997986
391.0,0.2533291836151708
390.5,0.2533650753650973
390.0,0.25337963504773864
389.5,0.253366817684732
389.0,0.25331965803040696
388.5,0.2532304666997105
388.0,0.25309141290848675
387.5,0.252895394598503
387.0,0.2526369669613293
386.5,0.2523131368229383
386.0,0.2519238931481649
385.5,0.2514723689030797
385.0,0.2509646255215273
384.5,0.25040898900530323
384.0,0.24981505792334502
383.5,0.2491924701037328
383.0,0.2485496396191479
382.5,0.2478928130195045
382.0,0.24722567231343975
381.5,0.24654965882698915
381.0,0.2458649635135743
380.5,0.24517188931325135
380.0,0.2444721061471751
379.5,0.24376934543492826
379.0,0.24306922517675586
378.5,0.2423781879407332
378.0,0.24170188021278025
377.5,0.2410435111501945
377.0,0.24040275831646624
376.5,0.23977560462213385
376.0,0.2391551711378724
375.5,0.2385333358295625
375.0,0.23790264118969495
374.5,0.23725804031041856
374.0,0.2365981078302662
373.5,0.2359254980122545
373.0,0.2352466617670985
372.5,0.23457088346670624
372.0,0.2339088588625674
371.5,0.2332710310911404
371.0,0.2326660300530312
370.5,0.2320995590870291
370.0,0.231573987451816
369.5,0.23108874882644434
369.0,0.23064144030267214
368.5,0.2302292882885465
368.0,0.2298506128924037
367.5,0.2295058524201344
367.0,0.2291979709043726
366.5,0.2289322002832212
366.0,0.2287152445049849
365.5,0.2285542127205763
365.0,0.2284555198807721
364.5,0.2284239799603577
364.0,0.22846220203509354
363.5,0.2285703886152281
363.0,0.22874643269018144
362.5,0.22898629932613085
362.0,0.22928447493000775
361.5,0.2296343717383481
361.0,0.2300285496313616
360.5,0.23045861147081534
360.0,0.2309148566662541
359.5,0.2313857248535547
359.0,0.2318572469972665
358.5,0.23231284645340144
358.0,0.2327336536239152
357.5,0.23309953201534864
357.0,0.2333908334722456
356.5,0.23359061998302674
356.0,0.2336869184431049
355.5,0.23367441991114166
355.0,0.23355509900458185
354.5,0.2333374127728779
354.0,0.2330342553319183
353.5,0.23266007571964095
353.0,0.2322281284706361
352.5,0.2317485722532907
352.0,0.23122800657964565
351.5,0.23067048243448485
351.0,0.23007950831340146
350.5,0.22946040550922395
350.0,0.228822281702565
349.5,0.22817914651240095
349.0,0.2275499374916117
348.5,0.226957409165298
348.0,0.2264259633669712
347.5,0.2259786631141001
347.0,0.22563380915500186
346.5,0.22540173924584414
346.0,0.22528259173256665
345.5,0.2252657682154601
345.0,0.2253313645477609
344.5,0.2254534182309584
344.0,0.2256042194026877
343.5,0.225758634019326
343.0,0.2258975490470499
342.5,0.22600976034863826
342.0,0.2260921592581601
341.5,0.22614858551770076
341.0,0.22618778891785654
340.5,0.2262210779917906
340.0,0.22626012236628104
339.5,0.2263152014612633
339.0,0.22639403756336
338.5,0.2265012703761296
338.0,0.22663848819048474
337.5,0.2268046536301516
337.0,0.22699679485314375
336.5,0.2272106403884665
336.0,0.2274411675024616
335.5,0.22768295017940265
335.0,0.2279303583206891
334.5,0.22817773194816746
334.0,0.22841956178427825
333.5,0.22865074102037916
333.0,0.22886683700774416
332.5,0.22906435173898634
332.0,0.22924090765798505
331.5,0.22939533543644244
331.0,0.2295276806424071
330.5,0.22963912495419164
330.0,0.22973188570249314
329.5,0.2298090608564142
329.0,0.22987447594708355
328.5,0.2299325098249471
328.0,0.2299878982370529
327.5,0.23004557349792085
327.0,0.23011053970064385
326.5,0.23018779062275746
326.0,0.2302822798857768
325.5,0.2303988566957518
325.0,0.2305420546100024
324.5,0.23071569401845016
324.0,0.23092226148431816
323.5,0.2311622466670657
323.0,0.2314336050087344
322.5,0.23173159164235546
322.0,0.2320490380878742
321.5,0.23237704123192215
321.0,0.2327057987940059
320.5,0.2330253165909771
320.0,0.2333257953306588
319.5,0.2335976242765549
319.0,0.2338312004932019
318.5,0.2340168175116689
318.0,0.2341449126870405
317.5,0.2342067565100344
317.0,0.234195567812328
316.5,0.2341078111598783
316.0,0.2339443568111572
315.5,0.23371125441900495
315.0,0.2334198624189539
314.5,0.2330862413196097
314.0,0.2327297776297396
313.5,0.2323712049369928
313.0,0.23203031657521075
312.5,0.2317237746500324
312.0,0.2314635175597733
311.5,0.23125615194345095
311.0,0.23110349326069626
310.5,0.231004098259814
310.0,0.23095534556478814
