wavelength,spectrum
629.5,2.0355119264269736e-05
629.0,2.0533412356829754e-05
628.5,2.0880489105095834e-05
628.0,2.1379301566098238e-05
627.5,2.200871943435264e-05
627.0,2.2747491611678664e-05
626.5,2.3577831667978745e-05
626.0,2.448789127374515e-05
625.5,2.547262803280488e-05
625.0,2.653325292529369e-05
624.5,2.767533043018082e-05
624.0,2.8906174387276948e-05
623.5,3.0232452466568035e-05
623.0,3.1658506309740675e-05
622.5,3.31861153688412e-05
622.0,3.4816058570463604e-05
621.5,3.6550654118708296e-05
621.0,3.839669611313728e-05
620.5,4.0367278271424846e-05
620.0,4.2481439609699265e-05
619.5,4.4761635783476566e-05
619.0,4.7229542934448706e-05
618.5,4.990210756593024e-05
618.0,5.2789568552211766e-05
617.5,5.589635382162516e-05
617.0,5.9224652064799583e-05
616.5,6.277847621220075e-05
616.0,6.656571713153934e-05
615.5,7.059628103078617e-05
615.0,7.487614780466774e-05
614.5,7.939969258573897e-05
614.0,8.414384558615547e-05
613.5,8.906749582492245e-05
613.0,9.411742029464463e-05
612.5,9.923902853174156e-05
612.0,0.00010438810767288255
611.5,0.0001095389553976494
611.0,0.00011468583436390158
610.5,0.00011983749518800567
610.0,0.0001250073604314839
609.5,0.0001302034337932535
609.0,0.00013542198692659822
608.5,0.00014064694496035036
608.0,0.00014585472785731349
607.5,0.00015102237573702548
607.0,0.00015613515081627669
606.5,0.0001611915953520196
606.0,0.00016620375003224654
605.5,0.00017119248676756443
605.0,0.00017617977274019504
604.5,0.0001811787951889664
604.0,0.00018618492910317682
603.5,0.00019116907056571968
603.0,0.00019607474363612904
602.5,0.00020082073002263695
602.0,0.00020530937515771385
601.5,0.0002094406039157742
601.0,0.00021312998797195967
600.5,0.00021632723848197187
600.0,0.00021903075254177195
599.5,0.00022129350718720284
599.0,0.00022321733844467764
598.5,0.00022493584352943486
598.0,0.0002265898659111479
597.5,0.00022830204297718184
597.0,0.00023015693476463706
596.5,0.00023219232752319922
596.0,0.00023440207549891757
595.5,0.00023674800706323263
595.0,0.0002391760913262841
594.5,0.00024163086223491343
594.0,0.0002440645314500685
593.5,0.0002464391992247185
593.0,0.00024872306371587016
592.5,0.0002508834852715118
592.0,0.00025288055655870237
591.5,0.0002546645486532461
591.0,0.0002561791892826968
590.5,0.0002573711175638431
590.0,0.0002582027174644664
589.5,0.00025866460278629205
589.0,0.00025878289391131985
588.5,0.0002586181737195845
588.0,0.00025825634157913293
587.5,0.00025779383665437163
587.0,0.00025732245853715935
586.5,0.0002569179773796268
586.0,0.00025663492999661395
585.5,0.0002565072581289021
585.0,0.0002565523390043712
584.5,0.00025677569876769447
584.0,0.0002571746607773952
583.5,0.0002577406379336232
583.0,0.00025846106638711117
582.5,0.00025932200282848005
582.0,0.0002603119099115084
581.5,0.0002614256363747755
581.0,0.0002626675001973626
580.5,0.0002640521655067784
580.0,0.0002656023832082598
579.5,0.00026734537969500037
579.0,0.0002693082690900621
578.5,0.0002715143843874644
578.0,0.0002739813668931198
577.5,0.00027672031876136143
577.0,0.0002797348367274788
576.5,0.00028301915845132804
576.0,0.00028655399173246936
575.5,0.000290300755767245
575.0,0.0002941961112844703
574.5,0.0002981482818397983
574.0,0.00030203799394882506
573.5,0.00030572462851500263
573.0,0.00030905743839816077
572.5,0.0003118902142026733
572.0,0.00031409707305249455
571.5,0.0003155874727696497
571.0,0.0003163182990639721
570.5,0.00031630164326269664
570.0,0.0003156074156235484
569.5,0.00031435916946206174
569.0,0.00031272245811641517
568.5,0.0003108859200941063
568.0,0.0003090373030617724
567.5,0.00030733879823701516
567.0,0.00030590746108744753
566.5,0.00030480526723494837
566.0,0.00030404105142119365
565.5,0.00030358318889841786
565.0,0.00030337797369206206
564.5,0.00030336814031692864
564.0,0.0003035066270990439
563.5,0.000303762303090231
563.0,0.0003041182769633425
562.5,0.00030456502617949615
562.0,0.00030509128326072223
561.5,0.00030567619065958936
561.0,0.00030628515542874225
560.5,0.00030687103221474645
560.0,0.00030738111785529965
559.5,0.00030776992211583454
559.0,0.00030801439731118814
558.5,0.0003081278341726204
558.0,0.00030816774211604736
557.5,0.000308233166049591
557.0,0.0003084510134473153
556.5,0.00030895376683118264
556.0,0.00030985416135501814
555.5,0.00031122345634354353
555.0,0.00031307828011864025
554.5,0.00031537890433372184
554.0,0.0003180377720441536
553.5,0.00032093519071684976
553.0,0.00032393848928925886
552.5,0.00032692018121187414
552.0,0.000329772725899054
551.5,0.00033241714150405516
551.0,0.0003348055995039109
550.5,0.00033691864308724065
550.0,0.00033875983890417285
549.5,0.0003403509184052622
549.0,0.0003417305042638955
548.5,0.00034295760723846444
548.0,0.00034411862523848525
547.5,0.00034533452026578617
547.0,0.00034676391793780664
546.5,0.0003485982966462494
546.0,0.00035104848419636856
545.5,0.00035432466931001544
545.0,0.0003586139081140669
544.5,0.00036406035574173016
544.0,0.0003707519377141304
543.5,0.00037871452234134687
543.0,0.0003879118460073844
542.5,0.0003982493742308786
542.0,0.00040957928743482256
541.5,0.00042170661453218235
541.0,0.0004343977985184666
540.5,0.00044739324290542785
540.0,0.0004604241230313601
539.5,0.0004732318440179633
539.0,0.0004855868259490493
538.5,0.0004973030207910197
538.0,0.0005082457564342594
537.5,0.0005183330798059337
537.0,0.0005275317753545444
536.5,0.0005358505660908222
536.0,0.000543332759515029
535.5,0.000550048472517848
535.0,0.000556087177930681
534.5,0.0005615495292064132
534.0,0.0005665387504632462
533.5,0.0005711524057058997
533.0,0.0005754755782380858
532.5,0.0005795760606366353
532.0,0.0005835027301513912
531.5,0.0005872861556230452
531.0,0.0005909410958471366
530.5,0.0005944700580735173
530.0,0.0005978666737401888
529.5,0.0006011188270236832
529.0,0.0006042112310125381
528.5,0.0006071282520126325
528.0,0.0006098569795644168
527.5,0.0006123912124349509
527.0,0.0006147346442180499
526.5,0.0006169024757414742
526.0,0.0006189200827883654
525.5,0.0006208185326399612
525.0,0.000622627776983625
524.5,0.0006243685461792397
524.0,0.0006260453137641638
523.5,0.0006276422946107598
523.0,0.0006291231802368863
522.5,0.0006304359322000278
522.0,0.0006315222660899977
521.5,0.0006323307315496997
521.0,0.0006328307069892185
520.5,0.0006330235001785138
520.0,0.0006329462836422613
519.5,0.0006326657371837737
519.0,0.0006322620771285561
518.5,0.000631807256921597
518.0,0.0006313439897992557
517.5,0.0006308730588149192
517.0,0.0006303533244290669
516.5,0.000629715037934927
516.0,0.0006288824703925906
515.5,0.0006277981720779555
515.0,0.0006264419283873878
514.5,0.0006248386995374214
514.0,0.0006230543890407279
513.5,0.0006211821449824768
513.0,0.000619324631591276
512.5,0.0006175781561932352
512.0,0.0006160235386965709
511.5,0.0006147250822185059
511.0,0.0006137358262074162
510.5,0.0006131060918673507
510.0,0.0006128903501963251
509.5,0.0006131490654852354
509.0,0.0006139449723663304
508.5,0.0006153350590938103
508.0,0.000617361552776637
507.5,0.0006200447372545242
507.0,0.000623379808032662
506.5,0.000627338359485571
506.0,0.0006318725623199
505.5,0.000636921025002281
505.0,0.0006424138687814666
504.5,0.0006482764505767398
504.0,0.000654431774975821
503.5,0.0006608015748774673
503.0,0.0006673072318513768
502.5,0.0006738702155927359
502.0,0.0006804127991830522
501.5,0.0006868592397592715
501.0,0.0006931378420487268
500.5,0.0006991848976369477
500.0,0.0007049506297398191
499.5,0.0007104068799764443
499.0,0.0007155550887061393
498.5,0.0007204317762506058
498.0,0.0007251085894039886
497.5,0.0007296846838060112
497.0,0.0007342715345882931
496.5,0.0007389724637011084
496.0,0.0007438617494681826
495.5,0.0007489684318728563
495.0,0.0007542690348123611
494.5,0.000759690872675882
494.0,0.0007651250620993603
493.5,0.0007704458906980606
493.0,0.0007755320662552994
492.5,0.0007802854731023648
492.0,0.0007846441154477818
491.5,0.0007885876396486134
491.0,0.0007921350784544242
490.5,0.0007953365718415473
490.0,0.0007982610137076303
489.5,0.0008009828313639539
489.0,0.0008035701364333129
488.5,0.0008060761358995723
488.0,0.0008085341310066171
487.5,0.0008109555466265196
487.0,0.0008133302652254678
486.5,0.0008156282110196308
486.0,0.0008178026298853379
485.5,0.000819795114605853
485.0,0.0008215430564111374
484.5,0.000822989507782444
484.0,0.0008240937113063633
483.5,0.0008248403056746401
483.0,0.0008252444746764403
482.5,0.0008253509195731965
482.0,0.0008252264173381245
481.5,0.0008249480005381258
481.0,0.0008245893111004533
480.5,0.0008242091281018416
480.0,0.0008238447314011863
479.5,0.000823510937514799
479.0,0.0008232047148922973
478.5,0.0008229131167395733
478.0,0.0008226219035247718
477.5,0.0008223221315924233
477.0,0.0008220128318079451
476.5,0.0008216997972576048
476.0,0.000821391733716366
475.5,0.0008210964501509407
475.0,0.0008208193343752425
474.5,0.0008205651082693432
474.0,0.0008203413837975358
473.5,0.0008201617411060856
473.0,0.0008200450378519566
472.5,0.0008200100235402053
472.0,0.0008200667240125987
471.5,0.0008202075748960874
471.0,0.0008204025651664081
470.5,0.0008206007547309923
470.0,0.0008207379291790964
469.5,0.0008207481513277911
469.0,0.0008205755732993438
468.5,0.0008201832699882046
468.0,0.0008195572499793503
467.5,0.0008187057900547657
467.0,0.0008176549456549449
466.5,0.000816441759126259
466.0,0.0008151067737845706
465.5,0.0008136867819984058
465.0,0.0008122087670981908
464.5,0.0008106861440022603
464.0,0.0008091175810661017
463.5,0.0008074890012621079
463.0,0.0008057779437822992
462.5,0.0008039586853346353
462.0,0.0008020069351309773
461.5,0.0007999021423001186
461.0,0.0007976276764287553
460.5,0.0007951694832249253
460.0,0.0007925146156329977
459.5,0.0007896513257931293
459.0,0.0007865712412954328
458.5,0.0007832737106387113
458.0,0.000779771293267084
457.5,0.0007760948085700617
457.0,0.0007722965027720316
456.5,0.0007684496863658378
456.0,0.0007646442132621656
455.5,0.0007609778060548803
455.0,0.0007575447360191923
454.5,0.0007544242219687218
454.0,0.0007516715811772538
453.5,0.0007493150765979787
453.0,0.0007473589233538918
452.5,0.000745791551311006
452.0,0.0007445957718994579
451.5,0.0007437569412160704
451.0,0.0007432658947921835
450.5,0.0007431156564023185
450.0,0.000743293047457852
449.5,0.0007437686904339103
449.0,0.0007444890089215514
448.5,0.0007453737717185116
448.0,0.000746320060402104
447.5,0.0007472118911220928
447.0,0.0007479325429619009
446.5,0.0007483762477853588
446.0,0.0007484560791100179
445.5,0.0007481065915289863
445.0,0.000747281827671975
444.5,0.0007459500504883911
444.0,0.000744088328307551
443.5,0.0007416787542420548
443.0,0.0007387077351254537
442.5,0.0007351682246798855
442.0,0.000731064011107949
441.5,0.0007264143073955134
441.0,0.0007212575309931825
440.5,0.0007156529752951648
440.0,0.0007096803226053091
439.5,0.0007034368374065571
439.0,0.0006970331144362031
438.5,0.0006905877336550492
438.0,0.0006842215042668263
437.5,0.0006780518096526293
437.0,0.0006721869047618226
436.5,0.0006667208800396576
436.0,0.0006617291725574653
435.5,0.0006572651183344829
435.0,0.0006533579064514166
434.5,0.0006500123457738513
434.0,0.0006472101508516197
433.5,0.0006449127223728157
433.0,0.0006430645457856432
432.5,0.0006415969209481393
432.0,0.0006404313946945478
431.5,0.0006394832308139531
431.0,0.0006386649149980836
430.5,0.0006378899189206992
430.0,0.0006370766470610313
429.5,0.0006361521050617867
429.0,0.0006350547778241126
428.5,0.0006337363715636326
428.0,0.0006321626213941437
427.5,0.000630313413172484
427.0,0.0006281829357675256
426.5,0.0006257797907949585
426.0,0.0006231270536006515
425.5,0.0006202614789581867
425.0,0.0006172314911797939
424.5,0.0006140935622331286
424.0,0.00061090739649782
423.5,0.000607730639859224
423.0,0.0006046140427825572
422.5,0.0006015978250178138
422.0,0.0005987096230227041
421.5,0.0005959637543485407
421.0,0.0005933614404833993
420.5,0.0005908916515639891
420.0,0.000588532194255053
419.5,0.0005862513710487773
419.0,0.0005840102636119549
418.5,0.0005817658286995098
418.0,0.0005794745379027307
417.5,0.0005770961902096776
417.0,0.0005745971244233126
416.5,0.0005719522026120853
416.0,0.0005691453997822707
415.5,0.000566168966927377
415.0,0.0005630218322772053
414.5,0.0005597079046158717
414.0,0.0005562351351302456
413.5,0.0005526157411610698
413.0,0.0005488678181884528
412.5,0.0005450179031239095
412.0,0.0005411035478322445
411.5,0.0005371747761812409
411.0,0.0005332932611276549
410.5,0.0005295284605601117
410.0,0.0005259509429642344
409.5,0.0005226238264234612
409.0,0.0005195940743816918
408.5,0.0005168856998608288
408.0,0.0005144964089745538
407.5,0.0005123985650740404
407.0,0.0005105441447161343
406.5,0.0005088725600872397
406.0,0.0005073194805145404
405.5,0.0005058249917470634
405.0,0.0005043395421579751
404.5,0.0005028269771531481
404.0,0.0005012646337688126
403.5,0.0004996410783433207
403.0,0.0004979524956141471
402.5,0.0004961988092939176
402.0,0.0004943804087707709
401.5,0.000492496077365832
401.0,0.0004905423142690242
400.5,0.0004885139172643959
400.0,0.00048640571449081604
399.5,0.0004842147875440807
399.0,0.00048194297786434333
398.5,0.00047959880761482216
398.0,0.0004771984279405088
397.5,0.0004747651478018785
397.0,0.00047232755523596883
396.5,0.0004699166241493197
396.0,0.00046756245245078987
395.5,0.00046529139866502336
395.0,0.00046312402272238233
394.5,0.00046107411553538915
394.0,0.0004591485698524829
393.5,0.0004573478136852505
393.0,0.0004556664735677748
392.5,0.0004540941559527974
392.0,0.0004526161774608242
391.5,0.0004512143846116713
391.0,0.00044986795486248407
390.5,0.0004485541446002588
390.0,0.0004472488683321264
389.5,0.00044592708385588533
389.0,0.00044456294899995237
388.5,0.00044312999093462326
388.0,0.00044160141620394573
387.5,0.00043995083971432784
387.0,0.00043815346129118417
386.5,0.00043618760726760934
386.0,0.00043403642304504014
385.5,0.0004316893041870509
385.0,0.0004291427379224599
384.5,0.00042640013306394285
384.0,0.0004234706868595667
383.5,0.0004203673626098044
383.0,0.0004171045028596845
382.5,0.00041369570514758735
382.0,0.00041015260412874784
381.5,0.00040648495236394837
381.0,0.000402702008174893
380.5,0.00039881472037918897
380.0,0.00039483786431580354
379.5,0.00039079123694906007
379.0,0.0003866992699589154
378.5,0.0003825889435057221
378.0,0.00037848655248700713
377.5,0.00037441423093416144
377.0,0.0003703873150971558
376.5,0.0003664133319955649
376.0,0.0003624927894076989
375.5,0.00035862151056864286
375.0,0.0003547937061070364
374.5,0.0003510049895429662
374.0,0.0003472546873938253
373.5,0.000343547060583207
373.0,0.0003398914546028386
372.5,0.00033630142594598964
372.0,0.0003327932419253969
371.5,0.0003293839619490163
371.0,0.00032608962005954153
370.5,0.0003229239484880397
370.0,0.00031989801178160097
369.5,0.00031702093532523897
369.0,0.00031430153391474825
368.5,0.0003117503100953814
368.0,0.00030938126922495305
367.5,0.0003072126917013301
367.0,0.000305266692440808
366.5,0.000303567423329446
366.0,0.00030213828920234325
365.5,0.00030099885412407834
365.0,0.00030016210042055173
364.5,0.0002996328105188777
364.0,0.00029940738775428665
363.5,0.0002994751805909826
363.0,0.00029982076077645427
362.5,0.00030042635922709286
362.0,0.0003012734786247868
361.5,0.00030234300408732575
361.0,0.0003036137370109916
360.5,0.00030505994012299355
360.0,0.0003066488948128094
359.5,0.0003083396636180768
359.0,0.0003100837330667253
358.5,0.00031182775328714537
358.0,0.0003135175932293528
357.5,0.0003151026122385393
357.0,0.0003165390258665393
356.5,0.0003177914949505496
356.0,0.00031883280643698535
355.5,0.00031964201324029945
355.0,0.0003202020248041411
354.5,0.0003204974461945351
354.0,0.00032051363115398484
353.5,0.000320236999669754
353.0,0.0003196567374305892
352.5,0.00031876720294713443
352.0,0.00031757053760224114
351.5,0.00031607879265688736
351.0,0.0003143152665850704
350.5,0.0003123148508178203
350.0,0.00031012350151437185
349.5,0.00030779694781511496
349.0,0.00030539867017855617
348.5,0.00030299705280965926
348.0,0.00030066145558985515
347.5,0.00029845723747628616
347.0,0.0002964400309510085
346.5,0.00029465013744276743
346.0,0.00029310829988355363
345.5,0.0002918140781587722
345.0,0.0002907475667545032
344.5,0.0002898743852093977
344.0,0.0002891528984426324
343.5,0.0002885421737121136
343.0,0.00028800887494706816
342.5,0.00028753178333956465
342.0,0.00028710327111106543
341.5,0.00028672802003527285
341.0,0.0002864196619509823
340.5,0.00028619647576405566
340.0,0.00028607720950229337
339.5,0.00028607785726591513
339.0,0.0002862098103263034
338.5,0.00028647940604236436
338.0,0.0002868885755113019
337.5,0.00028743601983044703
337.0,0.00028811851771472555
336.5,0.00028893175595000716
336.0,0.0002898707465215205
335.5,0.00029092976381680694
335.0,0.0002921021249529142
334.5,0.00029338008445260554
334.0,0.00029475495581046305
333.5,0.00029621750484964737
333.0,0.00029775842002839533
332.5,0.00029936870160537037
332.0,0.00030103983837903814
331.5,0.00030276374773594315
331.0,0.0003045326185262166
330.5,0.0003063387389313488
330.0,0.00030817451583008213
329.5,0.00031003263061954515
329.0,0.0003119063953899845
328.5,0.00031379018951240126
328.0,0.0003156798391408422
327.5,0.0003175729134780379
327.0,0.0003194688054325405
326.5,0.00032136857064839284
326.0,0.0003232745657840346
325.5,0.0003251898279109659
325.0,0.00032711721258361085
324.5,0.00032905830803732874
324.0,0.00033101215649196174
323.5,0.00033297410577049066
323.0,0.0003349349575356258
322.5,0.0003368808291989801
322.0,0.0003387938448484129
321.5,0.0003406535929733584
321.0,0.00034243894296057283
320.5,0.0003441296154423833
320.0,0.0003457070350768833
319.5,0.0003471541547568283
319.0,0.0003484546326338726
318.5,0.0003495918916507206
318.0,0.00035054898476769887
317.5,0.00035130974423645573
317.0,0.00035186145200012166
316.5,0.0003521985170412247
316.0,0.00035232613165264124
315.5,0.0003522629114877477
315.0,0.0003520414090517617
314.5,0.0003517060921239243
314.0,0.00035130869768368366
313.5,0.0003509016968174052
313.0,0.00035053100576849984
312.5,0.0003502294669232395
312.0,0.00035001269200115985
311.5,0.00034987850864333034
311.0,0.00034981046102059457
310.5,0.0003497847081311393
310.0,0.00034977864064926164
