wavelength,spectrum
310.0,7.830688693849227e-08
310.5,7.896326281702671e-08
311.0,8.023650514406807e-08
311.5,8.206027079832634e-08
312.0,8.43636973279704e-08
312.5,8.709677473619308e-08
313.0,9.025266780027913e-08
313.5,9.388095625858332e-08
314.0,9.808783028068326e-08
314.5,1.0302382704699926e-07
315.0,1.0886111657789303e-07
315.5,1.1576610534116503e-07
316.0,1.2387498763986893e-07
316.5,1.3327747065426095e-07
317.0,1.4401334344365035e-07
317.5,1.5608359385722433e-07
318.0,1.6947020111073144e-07
318.5,1.8416028110646777e-07
319.0,2.001643536517507e-07
319.5,2.175219397922233e-07
320.0,2.3629383415086024e-07
320.5,2.5654309481018865e-07
321.0,2.783162385562068e-07
321.5,3.016340190366898e-07
322.0,3.264970883288475e-07
322.5,3.529058306786427e-07
323.0,3.80881141624885e-07
323.5,4.104719210569913e-07
324.0,4.4173817923223335e-07
324.5,4.747095586554714e-07
325.0,5.09334446266128e-07
325.5,5.454431962612992e-07
326.0,5.82747095916093e-07
326.5,6.20882525989962e-07
327.0,6.594874808817016e-07
327.5,6.982855814905396e-07
328.0,7.371451391907209e-07
328.5,7.760906737273455e-07
329.0,8.15264506087365e-07
329.5,8.54855829922864e-07
330.0,8.950268761157899e-07
330.5,9.358650215440932e-07
331.0,9.77375021605999e-07
331.5,1.0195073989113527e-06
332.0,1.0622057656512856e-06
332.5,1.1054446061565184e-06
333.0,1.1492435440827813e-06
333.5,1.1936475986856558e-06
334.0,1.2386803748854064e-06
334.5,1.284289259236371e-06
335.0,1.3302928674717872e-06
335.5,1.376349648317891e-06
336.0,1.4219516045381555e-06
336.5,1.4664438563885517e-06
337.0,1.5090741367364986e-06
337.5,1.5490673809990368e-06
338.0,1.5857237627910273e-06
338.5,1.618530650189911e-06
339.0,1.647266829659328e-06
339.5,1.6720741945853652e-06
340.0,1.6934700559263621e-06
340.5,1.7122846818896678e-06
341.0,1.7295299856963927e-06
341.5,1.7462280622745613e-06
342.0,1.7632431356386266e-06
342.5,1.7811584046008605e-06
343.0,1.8002303337528077e-06
343.5,1.820418322575349e-06
344.0,1.8414688216423866e-06
344.5,1.8630202790341892e-06
345.0,1.884691286672975e-06
345.5,1.9061321113582094e-06
346.0,1.9270340141731436e-06
346.5,1.947105273986637e-06
347.0,1.9660326559202334e-06
347.5,1.98344936107962e-06
348.0,1.998928715842107e-06
348.5,2.012013910972642e-06
349.0,2.022286688774676e-06
349.5,2.02945846881368e-06
350.0,2.0334603695319932e-06
350.5,2.0344995551536284e-06
351.0,2.0330584003343535e-06
351.5,2.029833886396278e-06
352.0,2.0256304532209985e-06
352.5,2.021241495519539e-06
353.0,2.017351129552951e-06
353.5,2.0144773028364543e-06
354.0,2.0129597734947898e-06
354.5,2.0129802772731943e-06
355.0,2.0145963306858453e-06
355.5,2.0177749806062374e-06
356.0,2.0224214678097973e-06
356.5,2.0284048295430845e-06
357.0,2.0355853921464897e-06
357.5,2.0438462690341298e-06
358.0,2.053121766948625e-06
358.5,2.0634161543833035e-06
359.0,2.074804607017825e-06
359.5,2.0874115930227066e-06
360.0,2.101380922094286e-06
360.5,2.116841522518627e-06
361.0,2.1338845658102444e-06
361.5,2.1525581578414502e-06
362.0,2.1728742986580134e-06
362.5,2.194816919937872e-06
363.0,2.2183412260027425e-06
363.5,2.2433500424665845e-06
364.0,2.269649275284514e-06
364.5,2.2968959985434954e-06
365.0,2.3245523622746758e-06
365.5,2.3518707794294447e-06
366.0,2.3779195661934278e-06
366.5,2.4016518757156495e-06
367.0,2.4220087485502045e-06
367.5,2.4380388973112623e-06
368.0,2.449019985078002e-06
368.5,2.454563022077658e-06
369.0,2.4546855065168546e-06
369.5,2.449843891499581e-06
370.0,2.4409099310427535e-06
370.5,2.429084513145117e-06
371.0,2.4157521086703475e-06
371.5,2.402294499063004e-06
372.0,2.3899006691865505e-06
372.5,2.3794195481718213e-06
373.0,2.3712906257268066e-06
373.5,2.3655671912321492e-06
374.0,2.3620194299798956e-06
374.5,2.3602746636654513e-06
375.0,2.359950928162619e-06
375.5,2.3607478562963744e-06
376.0,2.3624748098625225e-06
376.5,2.365027406970634e-06
377.0,2.3683331558943117e-06
377.5,2.3722892739909698e-06
378.0,2.3767143983619833e-06
378.5,2.381326346668528e-06
379.0,2.385753712469901e-06
379.5,2.3895837514658592e-06
380.0,2.392450882398695e-06
380.5,2.3941467957358867e-06
381.0,2.3947281457527718e-06
381.5,2.3945872277106385e-06
382.0,2.3944461225910025e-06
382.5,2.395264628713421e-06
383.0,2.398074025344426e-06
383.5,2.4037768946217984e-06
384.0,2.4129672244669283e-06
384.5,2.4258145630251646e-06
385.0,2.4420410118185077e-06
385.5,2.4609863780938108e-06
386.0,2.4817368162634734e-06
386.5,2.5032847804618384e-06
387.0,2.524679341298168e-06
387.5,2.54514208744363e-06
388.0,2.564126801277789e-06
388.5,2.5813252278179106e-06
389.0,2.5966283977110327e-06
389.5,2.610072578900465e-06
390.0,2.6217972322440448e-06
390.5,2.6320393888790577e-06
391.0,2.6411723914480492e-06
391.5,2.6497736144134184e-06
392.0,2.6586924241020087e-06
392.5,2.6690820703080116e-06
393.0,2.6823651806379592e-06
393.5,2.7001278175061244e-06
394.0,2.723958958520105e-06
394.5,2.7552687667988174e-06
395.0,2.795126531295532e-06
395.5,2.8441496346417717e-06
396.0,2.9024565010070734e-06
396.5,2.9696721582419195e-06
397.0,3.0449744436844147e-06
397.5,3.1271581708491683e-06
398.0,3.2147099005076385e-06
398.5,3.305895738299227e-06
399.0,3.3988644136834185e-06
399.5,3.4917641971803577e-06
400.0,3.5828628530996956e-06
400.5,3.6706535276982016e-06
401.0,3.7539312781120687e-06
401.5,3.831832539813971e-06
402.0,3.9038454152957575e-06
402.5,3.969796800954972e-06
403.0,4.029826593074566e-06
403.5,4.0843527840164935e-06
404.0,4.13401807206531e-06
404.5,4.179618810944602e-06
405.0,4.222012649123705e-06
405.5,4.2620174191967825e-06
406.0,4.300318672083855e-06
406.5,4.337404166534275e-06
407.0,4.3735340998590446e-06
407.5,4.408753747714242e-06
408.0,4.442936757321369e-06
408.5,4.475847468852498e-06
409.0,4.507209041609851e-06
409.5,4.536761062039811e-06
410.0,4.564301123344443e-06
410.5,4.589706731436318e-06
411.0,4.6129430484155245e-06
411.5,4.63405996026792e-06
412.0,4.6531881992287275e-06
412.5,4.6705279632327624e-06
413.0,4.686331928918125e-06
413.5,4.700877626434171e-06
414.0,4.714430157611856e-06
414.5,4.72720149472038e-06
415.0,4.739308748919373e-06
415.5,4.750743428704886e-06
416.0,4.761359567494297e-06
416.5,4.770881639719005e-06
417.0,4.778941219362711e-06
417.5,4.78514145795519e-06
418.0,4.789144429756558e-06
418.5,4.790764290114477e-06
419.0,4.790040668283666e-06
419.5,4.787260418505491e-06
420.0,4.782906380382892e-06
420.5,4.777538009801315e-06
421.0,4.771632398252407e-06
421.5,4.765435905059125e-06
422.0,4.7588801724340035e-06
422.5,4.751593796127778e-06
423.0,4.743010933996339e-06
423.5,4.732545903788551e-06
424.0,4.7197757405421746e-06
424.5,4.704580176180898e-06
425.0,4.68719970835685e-06
425.5,4.668204291779418e-06
426.0,4.648392928219231e-06
426.5,4.628663335120158e-06
427.0,4.6098914135191615e-06
427.5,4.592852818892025e-06
428.0,4.57819819388714e-06
428.5,4.5664694351525206e-06
429.0,4.558140419892964e-06
429.5,4.553652605930438e-06
430.0,4.553423088341826e-06
430.5,4.557820812016545e-06
431.0,4.567118768276243e-06
431.5,4.581440360282961e-06
432.0,4.600716666848374e-06
432.5,4.624672867547807e-06
433.0,4.652850261196807e-06
433.5,4.684651911334833e-06
434.0,4.719407622313225e-06
434.5,4.7564359044599555e-06
435.0,4.795091872479611e-06
435.5,4.834796452530008e-06
436.0,4.875042437557019e-06
436.5,4.915386101784195e-06
437.0,4.9554279291696675e-06
437.5,4.994792789208683e-06
438.0,5.033114297785519e-06
438.5,5.070030152053427e-06
439.0,5.105196334128561e-06
439.5,5.138323552349111e-06
440.0,5.169235706470186e-06
440.5,5.197939300215011e-06
441.0,5.224679470749699e-06
441.5,5.249955711933795e-06
442.0,5.274475583563227e-06
442.5,5.29904600661354e-06
443.0,5.324421038041031e-06
443.5,5.3511463424523445e-06
444.0,5.379441470084458e-06
444.5,5.409149785528478e-06
445.0,5.439768295645451e-06
445.5,5.470545990378866e-06
446.0,5.500623260704745e-06
446.5,5.529181430502957e-06
447.0,5.555571184789888e-06
447.5,5.579395585692825e-06
448.0,5.600539907359169e-06
448.5,5.6191469374137955e-06
449.0,5.635550137064784e-06
449.5,5.650183936224187e-06
450.0,5.663494991518302e-06
450.5,5.675868504932616e-06
451.0,5.68758210904381e-06
451.5,5.698785110272215e-06
452.0,5.709496237588782e-06
452.5,5.719612216278319e-06
453.0,5.728920095393916e-06
453.5,5.737117768665933e-06
454.0,5.743842778676066e-06
454.5,5.748715184863949e-06
455.0,5.751393010445935e-06
455.5,5.7516285804745985e-06
456.0,5.7493148060055225e-06
456.5,5.744508276283e-06
457.0,5.737422325506146e-06
457.5,5.728392805997162e-06
458.0,5.7178300453909245e-06
458.5,5.706166742625745e-06
459.0,5.693815002997866e-06
459.5,5.681136975362206e-06
460.0,5.668425899371575e-06
460.5,5.655899053540864e-06
461.0,5.643698039776228e-06
461.5,5.63189592905855e-06
462.0,5.620510425594433e-06
462.5,5.6095181568714525e-06
463.0,5.598869177966752e-06
463.5,5.588500425901919e-06
464.0,5.5783535601121835e-06
464.5,5.568397674756733e-06
465.0,5.5586556614546126e-06
465.5,5.549222037268155e-06
466.0,5.540257230670401e-06
466.5,5.531946425433876e-06
467.0,5.5244267469456405e-06
467.5,5.5177033045094105e-06
468.0,5.511584513179219e-06
468.5,5.5056668510382205e-06
469.0,5.499384500019042e-06
469.5,5.49211193098405e-06
470.0,5.48329022486009e-06
470.5,5.472539751511043e-06
471.0,5.459724948040256e-06
471.5,5.444955651320374e-06
472.0,5.428531155222953e-06
472.5,5.4108461591623315e-06
473.0,5.392287947428929e-06
473.5,5.373153152784113e-06
474.0,5.353599411803136e-06
474.5,5.333637957470606e-06
475.0,5.313161151957979e-06
475.5,5.2919885799983356e-06
476.0,5.269920178305302e-06
476.5,5.246782837090571e-06
477.0,5.222460980656073e-06
477.5,5.196912872740429e-06
478.0,5.170168154973019e-06
478.5,5.142314203946579e-06
479.0,5.11347571168296e-06
479.5,5.0837918575575534e-06
480.0,5.05339958541414e-06
480.5,5.022424776551591e-06
481.0,4.990987316805986e-06
481.5,4.959220470598074e-06
482.0,4.927300242711136e-06
482.5,4.895479015103457e-06
483.0,4.864106657775109e-06
483.5,4.833627723741046e-06
484.0,4.80454694223823e-06
484.5,4.77736480020816e-06
485.0,4.752502112009151e-06
485.5,4.730236407200091e-06
486.0,4.710674225603149e-06
486.5,4.693767443338956e-06
487.0,4.679365177945032e-06
487.5,4.667277027808476e-06
488.0,4.657319484044086e-06
488.5,4.6493254171392275e-06
489.0,4.643117087920914e-06
489.5,4.6384561956584455e-06
490.0,4.634999485801774e-06
490.5,4.6322825221109634e-06
491.0,4.6297430873970865e-06
491.5,4.62677687894267e-06
492.0,4.622805674783148e-06
492.5,4.6173310884055026e-06
493.0,4.609957235609357e-06
493.5,4.600375887686219e-06
494.0,4.588325764063359e-06
494.5,4.573549077500392e-06
495.0,4.5557612614922825e-06
495.5,4.534652572106673e-06
496.0,4.509917382329613e-06
496.5,4.481301409472149e-06
497.0,4.448652645748446e-06
497.5,4.411962416217602e-06
498.0,4.371389304728867e-06
498.5,4.327269021387812e-06
499.0,4.280110191655179e-06
499.5,4.230581374795713e-06
500.0,4.179486076577073e-06
500.5,4.127724497318949e-06
501.0,4.07624151836202e-06
501.5,4.025962717607764e-06
502.0,3.97772964076057e-06
502.5,3.93224407515511e-06
503.0,3.890032892431973e-06
503.5,3.851437979898014e-06
504.0,3.816626594637062e-06
504.5,3.7856139846250685e-06
505.0,3.7582886869218174e-06
505.5,3.7344312807127174e-06
506.0,3.7137303982093116e-06
506.5,3.695796911466786e-06
507.0,3.6801838071060944e-06
507.5,3.6664128474875105e-06
508.0,3.654006407259507e-06
508.5,3.6425160938280333e-06
509.0,3.631541174907693e-06
509.5,3.6207314255821584e-06
510.0,3.6097759443831e-06
510.5,3.5983846189457216e-06
511.0,3.5862724637214057e-06
511.5,3.573157430239377e-06
512.0,3.5587734458426507e-06
512.5,3.5428993665951453e-06
513.0,3.525392534395755e-06
513.5,3.506216906031041e-06
514.0,3.4854556489735246e-06
514.5,3.463303937784027e-06
515.0,3.4400433697727615e-06
515.5,3.416006818670391e-06
516.0,3.3915412083162012e-06
516.5,3.366976438889331e-06
517.0,3.3426041543786403e-06
517.5,3.318664276692833e-06
518.0,3.2953368460428015e-06
518.5,3.2727354740002814e-06
519.0,3.250900543967893e-06
519.5,3.2297936603218703e-06
520.0,3.2092966144323245e-06
520.5,3.1892177949580437e-06
521.0,3.169307488252679e-06
521.5,3.149281428610186e-06
522.0,3.1288499725950085e-06
522.5,3.1077478195505975e-06
523.0,3.085760903716693e-06
523.5,3.062746733067371e-06
524.0,3.0386448592003845e-06
524.5,3.0134772758498483e-06
525.0,2.987338818470992e-06
525.5,2.9603807426957193e-06
526.0,2.932792726930574e-06
526.5,2.9047889064991518e-06
527.0,2.8766010764042933e-06
527.5,2.848479054417841e-06
528.0,2.820693466458341e-06
528.5,2.7935344788373433e-06
529.0,2.767300237343336e-06
529.5,2.742274209109718e-06
530.0,2.718694327591841e-06
530.5,2.6967220274007744e-06
531.0,2.6764202341013956e-06
531.5,2.6577474111899324e-06
532.0,2.6405699381068424e-06
532.5,2.6246892197627176e-06
533.0,2.6098772243353113e-06
533.5,2.5959095832256404e-06
534.0,2.582591521418219e-06
534.5,2.5697712756538684e-06
535.0,2.557340903760205e-06
535.5,2.5452278534041363e-06
536.0,2.5333789602069887e-06
536.5,2.521740717726253e-06
537.0,2.5102389751463916e-06
537.5,2.4987618616287866e-06
538.0,2.4871511755148064e-06
538.5,2.475207428263223e-06
539.0,2.4627114386364825e-06
539.5,2.449461038370186e-06
540.0,2.4353138031221256e-06
540.5,2.4202254030203187e-06
541.0,2.404269060195596e-06
541.5,2.387629588541749e-06
542.0,2.3705721664603817e-06
542.5,2.353394389294508e-06
543.0,2.3363759189100135e-06
543.5,2.319739948499664e-06
544.0,2.3036349751736995e-06
544.5,2.288138742377395e-06
545.0,2.27327849889979e-06
545.5,2.2590571936738754e-06
546.0,2.245475786893908e-06
546.5,2.232544599637459e-06
547.0,2.2202825055537128e-06
547.5,2.208707425611611e-06
548.0,2.197823453144863e-06
548.5,2.187610242675286e-06
549.0,2.1780181266669673e-06
549.5,2.1689675501861716e-06
550.0,2.1603528817146673e-06
550.5,2.1520467733755118e-06
551.0,2.1439045462198962e-06
551.5,2.1357689031056787e-06
552.0,2.127475278266002e-06
552.5,2.1188581151917593e-06
553.0,2.10975754731382e-06
553.5,2.100025573834429e-06
554.0,2.0895310736505506e-06
554.5,2.078163607624534e-06
555.0,2.065837045134363e-06
555.5,2.052492012213579e-06
556.0,2.0380962165380746e-06
556.5,2.0226412747473583e-06
557.0,2.006134095408174e-06
557.5,1.9885851568435744e-06
558.0,1.969996011474614e-06
558.5,1.950351833692911e-06
559.0,1.9296219166657344e-06
559.5,1.9077703411335242e-06
560.0,1.8847747550324743e-06
560.5,1.8606489411159501e-06
561.0,1.8354636998411098e-06
561.5,1.8093616546192374e-06
562.0,1.782562409030564e-06
562.5,1.7553561500354773e-06
563.0,1.7280864091368136e-06
563.5,1.7011224145656464e-06
564.0,1.6748250307590171e-06
564.5,1.649510639911339e-06
565.0,1.6254185896398492e-06
565.5,1.6026882917401917e-06
566.0,1.5813495148068773e-06
566.5,1.5613276878886455e-06
567.0,1.542461994944876e-06
567.5,1.5245330284120715e-06
568.0,1.5072944712501713e-06
568.5,1.4905059469566394e-06
569.0,1.473964857880395e-06
569.5,1.4575355238776615e-06
570.0,1.4411740451354933e-06
570.5,1.4249444990917822e-06
571.0,1.4090217651902782e-06
571.5,1.3936768639379792e-06
572.0,1.3792448036053512e-06
572.5,1.3660796904571565e-06
573.0,1.3545056978194224e-06
573.5,1.344774738126803e-06
574.0,1.337038588223983e-06
574.5,1.3313397503851317e-06
575.0,1.327619675086152e-06
575.5,1.3257404578008122e-06
576.0,1.3255128895382902e-06
576.5,1.3267251992541124e-06
577.0,1.3291677945930664e-06
577.5,1.3326497393130704e-06
578.0,1.337005438902429e-06
578.5,1.3420922818358702e-06
579.0,1.3477813161986549e-06
579.5,1.353945035299628e-06
580.0,1.3604478674444715e-06
580.5,1.367141085934247e-06
581.0,1.3738653855810682e-06
581.5,1.3804588924245614e-06
582.0,1.3867674206483779e-06
582.5,1.3926541998943488e-06
583.0,1.398004550773138e-06
583.5,1.4027243623418324e-06
584.0,1.406731837205397e-06
584.5,1.409944895012405e-06
585.0,1.4122674883525794e-06
585.5,1.4135804046291172e-06
586.0,1.4137397932998377e-06
586.5,1.4125870441275497e-06
587.0,1.409968864459413e-06
587.5,1.405763583219963e-06
588.0,1.3999070328654896e-06
588.5,1.392411655093134e-06
589.0,1.3833740291510354e-06
589.5,1.3729704908683324e-06
590.0,1.3614429383965665e-06
590.5,1.3490791586178507e-06
591.0,1.3361912701748235e-06
591.5,1.3230943407087935e-06
592.0,1.310086154103473e-06
592.5,1.2974284846495295e-06
593.0,1.2853311305375826e-06
593.5,1.2739412792040258e-06
594.0,1.2633406956911268e-06
594.5,1.2535520258829964e-06
595.0,1.2445529413308273e-06
595.5,1.2362949914931206e-06
596.0,1.2287226466443237e-06
596.5,1.221788549088227e-06
597.0,1.215463433696563e-06
597.5,1.2097395467715032e-06
598.0,1.2046297411763962e-06
598.5,1.200163050629836e-06
599.0,1.1963783495510091e-06
599.5,1.1933169449711444e-06
600.0,1.1910147767677457e-06
600.5,1.1894952284928201e-06
601.0,1.1887638505189994e-06
601.5,1.18880588848885e-06
602.0,1.189587403379003e-06
602.5,1.191059960916973e-06
603.0,1.1931668390648342e-06
603.5,1.1958498672492547e-06
604.0,1.1990547615708765e-06
604.5,1.202733931829291e-06
605.0,1.2068465223661156e-06
605.5,1.2113562797228391e-06
606.0,1.2162279670701157e-06
606.5,1.2214239526024468e-06
607.0,1.2269022089554233e-06
607.5,1.2326163197298896e-06
608.0,1.2385178523156727e-06
608.5,1.2445603926650725e-06
609.0,1.2507038276812207e-06
609.5,1.2569177807263597e-06
610.0,1.2631821159064303e-06
610.5,1.2694849915946745e-06
611.0,1.2758181431666285e-06
611.5,1.2821712012925525e-06
612.0,1.2885274032820332e-06
612.5,1.2948622681338249e-06
613.0,1.3011469423182398e-06
613.5,1.3073561249613365e-06
614.0,1.313478611434036e-06
614.5,1.3195267824439098e-06
615.0,1.3255405798971686e-06
615.5,1.3315826621975792e-06
616.0,1.3377241514757644e-06
616.5,1.344023899200844e-06
617.0,1.3505074394416392e-06
617.5,1.357152265892557e-06
618.0,1.363884760679633e-06
618.5,1.3705900797607404e-06
619.0,1.3771317806188569e-06
619.5,1.383375033273688e-06
620.0,1.3892062168717734e-06
620.5,1.394544338640008e-06
621.0,1.3993426985481914e-06
621.5,1.4035835858411239e-06
622.0,1.4072700195990918e-06
622.5,1.4104198098165339e-06
623.0,1.413064180988143e-06
623.5,1.415250298639039e-06
624.0,1.4170458197328377e-06
624.5,1.4185405749588088e-06
625.0,1.4198425539666387e-06
625.5,1.4210661541451894e-06
626.0,1.4223138423816118e-06
626.5,1.4236551666271294e-06
627.0,1.4251082337337633e-06
627.5,1.4266298339367044e-06
628.0,1.428118520610314e-06
628.5,1.429432290184787e-06
629.0,1.430418363054493e-06
629.5,1.430948112759472e-06
