{
    "C:\\Users\\rig1\\Documents\\motyxia2\\motyxia\\allen\\stimuli\\data\\seq_WhiteNoise_background-0.0_coordinate-degree_frame_config-('is_display', 'probe center (altitude, azimuth)', 'polarity (-1 or 1)', 'indicator color [-1., 1.]')_grid_space-[5.0, 180.0]_is_include_edge-True_iteration-1_min_distance-20.0_minmax-[-1.0, 1.0]_number_unique_frames-1200_pause_frame_num-1_postgap_dur-10.0_pregap_dur-10.0_probe_frame_num-9_probe_orientation-0.0_probe_size-[270.0, 5.0]_refresh_distance-1.0_repeat-1_seed-5_sign-ON-OFF_subregion-[23.435549, 92.87816, 17.874985, 99.74488].pkl": "8ba4df3c-d6d9-499c-a13e-acf9c95d4c5f.pkl",
    "C:\\Users\\rig1\\Documents\\motyxia2\\motyxia\\allen\\stimuli\\data\\np_WhiteNoise_background-0.0_coordinate-degree_frame_config-('is_display', 'probe center (altitude, azimuth)', 'polarity (-1 or 1)', 'indicator color [-1., 1.]')_grid_space-[5.0, 180.0]_is_include_edge-True_iteration-1_min_distance-20.0_minmax-[-1.0, 1.0]_number_unique_frames-1200_pause_frame_num-1_postgap_dur-10.0_pregap_dur-10.0_probe_frame_num-9_probe_orientation-0.0_probe_size-[270.0, 5.0]_refresh_distance-1.0_repeat-1_seed-5_sign-ON-OFF_subregion-[23.435549, 92.87816, 17.874985, 99.74488].npy": "8ba4df3c-d6d9-499c-a13e-acf9c95d4c5f.npy",
    "C:\\Users\\rig1\\Documents\\motyxia2\\motyxia\\allen\\stimuli\\data\\seq_WhiteNoise_background-0.0_coordinate-degree_frame_config-('is_display', 'probe center (altitude, azimuth)', 'polarity (-1 or 1)', 'indicator color [-1., 1.]')_grid_space-[180.0, 5.0]_is_include_edge-True_iteration-1_min_distance-20.0_minmax-[-1.0, 1.0]_number_unique_frames-1200_pause_frame_num-1_postgap_dur-10.0_pregap_dur-10.0_probe_frame_num-9_probe_orientation-0.0_probe_size-[5.0, 270.0]_refresh_distance-1.0_repeat-1_seed-10_sign-ON-OFF_subregion-[23.435549, 92.87816, 17.874985, 99.74488].pkl": "9c949543-4892-4523-bb84-43a4c75466cc.pkl",
    "C:\\Users\\rig1\\Documents\\motyxia2\\motyxia\\allen\\stimuli\\data\\np_WhiteNoise_background-0.0_coordinate-degree_frame_config-('is_display', 'probe center (altitude, azimuth)', 'polarity (-1 or 1)', 'indicator color [-1., 1.]')_grid_space-[180.0, 5.0]_is_include_edge-True_iteration-1_min_distance-20.0_minmax-[-1.0, 1.0]_number_unique_frames-1200_pause_frame_num-1_postgap_dur-10.0_pregap_dur-10.0_probe_frame_num-9_probe_orientation-0.0_probe_size-[5.0, 270.0]_refresh_distance-1.0_repeat-1_seed-10_sign-ON-OFF_subregion-[23.435549, 92.87816, 17.874985, 99.74488].npy": "9c949543-4892-4523-bb84-43a4c75466cc.npy",
    "C:\\Users\\rig1\\Documents\\motyxia2\\motyxia\\allen\\stimuli\\data\\seq_WhiteNoise_background-0.0_coordinate-degree_frame_config-('is_display', 'probe center (altitude, azimuth)', 'polarity (-1 or 1)', 'indicator color [-1., 1.]')_grid_space-[180.0, 5.0]_is_include_edge-True_iteration-1_min_distance-20.0_minmax-[-1.0, 1.0]_number_unique_frames-600_pause_frame_num-1_postgap_dur-10.0_pregap_dur-10.0_probe_frame_num-18_probe_orientation-0.0_probe_size-[5.0, 270.0]_refresh_distance-1.0_repeat-1_seed-10_sign-ON-OFF_subregion-[23.435549, 92.87816, 17.874985, 99.74488].pkl": "d8c4a9b1-ef75-4d85-a162-97d3fbc401a4.pkl",
    "C:\\Users\\rig1\\Documents\\motyxia2\\motyxia\\allen\\stimuli\\data\\np_WhiteNoise_background-0.0_coordinate-degree_frame_config-('is_display', 'probe center (altitude, azimuth)', 'polarity (-1 or 1)', 'indicator color [-1., 1.]')_grid_space-[180.0, 5.0]_is_include_edge-True_iteration-1_min_distance-20.0_minmax-[-1.0, 1.0]_number_unique_frames-600_pause_frame_num-1_postgap_dur-10.0_pregap_dur-10.0_probe_frame_num-18_probe_orientation-0.0_probe_size-[5.0, 270.0]_refresh_distance-1.0_repeat-1_seed-10_sign-ON-OFF_subregion-[23.435549, 92.87816, 17.874985, 99.74488].npy": "d8c4a9b1-ef75-4d85-a162-97d3fbc401a4.npy"
}